{
    "info":{
        "name":"C02_E002-productPlatformsRate",
        "version":"1.0",
        "description":"Indica el tynto por ciento de los productos por Plataforma",
        "created":"2018.11.05",
        "executed":"",
        "blocked":0
    },
    "params":{
       
    },
    "inputs":[
        {
            "data_source":"dir",
            "domain":"processed",
            "collection":"E001-readXcel",
            "docs":[
                "E001_FACEBOOK.csv",
                "E001_INSTAGRAM.csv",
                "E001_TWITTER.csv",
                "E001_YOUTUBE.csv"
            ]
        },
        {
            "data_source":"dir",
            "domain":"processed",
            "collection":"E001-readXcel",
            "docs":[
                "E001_PRODUCTS.csv"
            ]
        }
    ],
    "output":{
        "data_source":"dir",
        "domain":"processed",
        "collection":"",
        "add_date":false
    },
    "cmd":"python main.py"
}