{
  "name": "NAM",
  "version": "0.3.0",
  "description": "MONITOR server",
  "engines": {
    "node": "8.9.1"
  },
  "main": "server.js",
  "scripts": {
    "start": "node server.js"
  },
  "dependencies": {
    "cors": "^2.8.4",
    "express": "^4.16.3",
    "http": "0.0.0"
  },
  "devDependencies": {
    "request": "^2.81.0",
    "tape": "^4.7.0"
  },
  "repository": {
    "type": "git",
    "url": "https://github.com/heroku/node-js-getting-started"
  },
  "keywords": [
    "node",
    "heroku",
    "express"
  ],
  "license": "MIT"
}
