{
  "Theater": {
    "YOUTUBE": {
      "data": [
        {
          "rate": "24.86", 
          "name": "Prints"
        }, 
        {
          "rate": "25.13", 
          "name": "Hits"
        }
      ], 
      "attr": {
        "ctr": "9.95", 
        "name": "YOUTUBE", 
        "block": "Theater"
      }
    }, 
    "TWITTER": {
      "data": [
        {
          "rate": "25.08", 
          "name": "Prints"
        }, 
        {
          "rate": "24.89", 
          "name": "Hits"
        }
      ], 
      "attr": {
        "ctr": "10.13", 
        "name": "TWITTER", 
        "block": "Theater"
      }
    }, 
    "FACEBOOK": {
      "data": [
        {
          "rate": "25.03", 
          "name": "Prints"
        }, 
        {
          "rate": "24.7", 
          "name": "Hits"
        }
      ], 
      "attr": {
        "ctr": "10.19", 
        "name": "FACEBOOK", 
        "block": "Theater"
      }
    }, 
    "INSTAGRAM": {
      "data": [
        {
          "rate": "25.03", 
          "name": "Prints"
        }, 
        {
          "rate": "25.28", 
          "name": "Hits"
        }
      ], 
      "attr": {
        "ctr": "9.96", 
        "name": "INSTAGRAM", 
        "block": "Theater"
      }
    }
  }, 
  "Sheatshirt": {
    "YOUTUBE": {
      "data": [
        {
          "rate": "24.91", 
          "name": "Prints"
        }, 
        {
          "rate": "25.33", 
          "name": "Hits"
        }
      ], 
      "attr": {
        "ctr": "9.91", 
        "name": "YOUTUBE", 
        "block": "Sheatshirt"
      }
    }, 
    "TWITTER": {
      "data": [
        {
          "rate": "25.0", 
          "name": "Prints"
        }, 
        {
          "rate": "24.71", 
          "name": "Hits"
        }
      ], 
      "attr": {
        "ctr": "10.19", 
        "name": "TWITTER", 
        "block": "Sheatshirt"
      }
    }, 
    "FACEBOOK": {
      "data": [
        {
          "rate": "24.95", 
          "name": "Prints"
        }, 
        {
          "rate": "24.67", 
          "name": "Hits"
        }
      ], 
      "attr": {
        "ctr": "10.19", 
        "name": "FACEBOOK", 
        "block": "Sheatshirt"
      }
    }, 
    "INSTAGRAM": {
      "data": [
        {
          "rate": "25.13", 
          "name": "Prints"
        }, 
        {
          "rate": "25.29", 
          "name": "Hits"
        }
      ], 
      "attr": {
        "ctr": "10.01", 
        "name": "INSTAGRAM", 
        "block": "Sheatshirt"
      }
    }
  }, 
  "Watch": {
    "YOUTUBE": {
      "data": [
        {
          "rate": "24.91", 
          "name": "Prints"
        }, 
        {
          "rate": "25.24", 
          "name": "Hits"
        }
      ], 
      "attr": {
        "ctr": "9.89", 
        "name": "YOUTUBE", 
        "block": "Watch"
      }
    }, 
    "TWITTER": {
      "data": [
        {
          "rate": "24.96", 
          "name": "Prints"
        }, 
        {
          "rate": "24.59", 
          "name": "Hits"
        }
      ], 
      "attr": {
        "ctr": "10.17", 
        "name": "TWITTER", 
        "block": "Watch"
      }
    }, 
    "FACEBOOK": {
      "data": [
        {
          "rate": "25.07", 
          "name": "Prints"
        }, 
        {
          "rate": "24.85", 
          "name": "Hits"
        }
      ], 
      "attr": {
        "ctr": "10.11", 
        "name": "FACEBOOK", 
        "block": "Watch"
      }
    }, 
    "INSTAGRAM": {
      "data": [
        {
          "rate": "25.05", 
          "name": "Prints"
        }, 
        {
          "rate": "25.33", 
          "name": "Hits"
        }
      ], 
      "attr": {
        "ctr": "9.91", 
        "name": "INSTAGRAM", 
        "block": "Watch"
      }
    }
  }, 
  "Sneakers": {
    "YOUTUBE": {
      "data": [
        {
          "rate": "25.04", 
          "name": "Prints"
        }, 
        {
          "rate": "25.55", 
          "name": "Hits"
        }
      ], 
      "attr": {
        "ctr": "9.85", 
        "name": "YOUTUBE", 
        "block": "Sneakers"
      }
    }, 
    "TWITTER": {
      "data": [
        {
          "rate": "25.06", 
          "name": "Prints"
        }, 
        {
          "rate": "24.71", 
          "name": "Hits"
        }
      ], 
      "attr": {
        "ctr": "10.19", 
        "name": "TWITTER", 
        "block": "Sneakers"
      }
    }, 
    "FACEBOOK": {
      "data": [
        {
          "rate": "25.06", 
          "name": "Prints"
        }, 
        {
          "rate": "24.64", 
          "name": "Hits"
        }
      ], 
      "attr": {
        "ctr": "10.22", 
        "name": "FACEBOOK", 
        "block": "Sneakers"
      }
    }, 
    "INSTAGRAM": {
      "data": [
        {
          "rate": "24.84", 
          "name": "Prints"
        }, 
        {
          "rate": "25.1", 
          "name": "Hits"
        }
      ], 
      "attr": {
        "ctr": "9.95", 
        "name": "INSTAGRAM", 
        "block": "Sneakers"
      }
    }
  }, 
  "Mobile Phone": {
    "YOUTUBE": {
      "data": [
        {
          "rate": "25.01", 
          "name": "Prints"
        }, 
        {
          "rate": "25.41", 
          "name": "Hits"
        }
      ], 
      "attr": {
        "ctr": "9.87", 
        "name": "YOUTUBE", 
        "block": "Mobile Phone"
      }
    }, 
    "TWITTER": {
      "data": [
        {
          "rate": "25.02", 
          "name": "Prints"
        }, 
        {
          "rate": "24.67", 
          "name": "Hits"
        }
      ], 
      "attr": {
        "ctr": "10.17", 
        "name": "TWITTER", 
        "block": "Mobile Phone"
      }
    }, 
    "FACEBOOK": {
      "data": [
        {
          "rate": "24.93", 
          "name": "Prints"
        }, 
        {
          "rate": "24.63", 
          "name": "Hits"
        }
      ], 
      "attr": {
        "ctr": "10.16", 
        "name": "FACEBOOK", 
        "block": "Mobile Phone"
      }
    }, 
    "INSTAGRAM": {
      "data": [
        {
          "rate": "25.04", 
          "name": "Prints"
        }, 
        {
          "rate": "25.29", 
          "name": "Hits"
        }
      ], 
      "attr": {
        "ctr": "9.93", 
        "name": "INSTAGRAM", 
        "block": "Mobile Phone"
      }
    }
  }, 
  "Dress": {
    "YOUTUBE": {
      "data": [
        {
          "rate": "24.92", 
          "name": "Prints"
        }, 
        {
          "rate": "25.29", 
          "name": "Hits"
        }
      ], 
      "attr": {
        "ctr": "9.88", 
        "name": "YOUTUBE", 
        "block": "Dress"
      }
    }, 
    "TWITTER": {
      "data": [
        {
          "rate": "25.09", 
          "name": "Prints"
        }, 
        {
          "rate": "24.87", 
          "name": "Hits"
        }
      ], 
      "attr": {
        "ctr": "10.12", 
        "name": "TWITTER", 
        "block": "Dress"
      }
    }, 
    "FACEBOOK": {
      "data": [
        {
          "rate": "25.05", 
          "name": "Prints"
        }, 
        {
          "rate": "24.73", 
          "name": "Hits"
        }
      ], 
      "attr": {
        "ctr": "10.16", 
        "name": "FACEBOOK", 
        "block": "Dress"
      }
    }, 
    "INSTAGRAM": {
      "data": [
        {
          "rate": "24.93", 
          "name": "Prints"
        }, 
        {
          "rate": "25.11", 
          "name": "Hits"
        }
      ], 
      "attr": {
        "ctr": "9.96", 
        "name": "INSTAGRAM", 
        "block": "Dress"
      }
    }
  }, 
  "Trip": {
    "YOUTUBE": {
      "data": [
        {
          "rate": "24.96", 
          "name": "Prints"
        }, 
        {
          "rate": "25.2", 
          "name": "Hits"
        }
      ], 
      "attr": {
        "ctr": "9.94", 
        "name": "YOUTUBE", 
        "block": "Trip"
      }
    }, 
    "TWITTER": {
      "data": [
        {
          "rate": "24.99", 
          "name": "Prints"
        }, 
        {
          "rate": "24.6", 
          "name": "Hits"
        }
      ], 
      "attr": {
        "ctr": "10.2", 
        "name": "TWITTER", 
        "block": "Trip"
      }
    }, 
    "FACEBOOK": {
      "data": [
        {
          "rate": "24.98", 
          "name": "Prints"
        }, 
        {
          "rate": "24.77", 
          "name": "Hits"
        }
      ], 
      "attr": {
        "ctr": "10.12", 
        "name": "FACEBOOK", 
        "block": "Trip"
      }
    }, 
    "INSTAGRAM": {
      "data": [
        {
          "rate": "25.07", 
          "name": "Prints"
        }, 
        {
          "rate": "25.43", 
          "name": "Hits"
        }
      ], 
      "attr": {
        "ctr": "9.89", 
        "name": "INSTAGRAM", 
        "block": "Trip"
      }
    }
  }, 
  "Scarf": {
    "YOUTUBE": {
      "data": [
        {
          "rate": "25.02", 
          "name": "Prints"
        }, 
        {
          "rate": "25.35", 
          "name": "Hits"
        }
      ], 
      "attr": {
        "ctr": "9.91", 
        "name": "YOUTUBE", 
        "block": "Scarf"
      }
    }, 
    "TWITTER": {
      "data": [
        {
          "rate": "24.95", 
          "name": "Prints"
        }, 
        {
          "rate": "24.51", 
          "name": "Hits"
        }
      ], 
      "attr": {
        "ctr": "10.23", 
        "name": "TWITTER", 
        "block": "Scarf"
      }
    }, 
    "FACEBOOK": {
      "data": [
        {
          "rate": "24.99", 
          "name": "Prints"
        }, 
        {
          "rate": "24.66", 
          "name": "Hits"
        }
      ], 
      "attr": {
        "ctr": "10.18", 
        "name": "FACEBOOK", 
        "block": "Scarf"
      }
    }, 
    "INSTAGRAM": {
      "data": [
        {
          "rate": "25.03", 
          "name": "Prints"
        }, 
        {
          "rate": "25.49", 
          "name": "Hits"
        }
      ], 
      "attr": {
        "ctr": "9.87", 
        "name": "INSTAGRAM", 
        "block": "Scarf"
      }
    }
  }
}