{
    "info":{
        "name":"005b-corrByPlatformDateRegion",
        "version":"1.0",
        "description":"",
        "created":"2018.11.05",
        "executed":"",
        "blocked":0
    },
    "params":{
       
    },
    "inputs":[
        {
            "data_source":"dir",
            "domain":"stage",
            "collection":"005a-summAllPlatformsByRegion",
            "docs":[
                "005a_platformsRegions.csv"
            ]
        }
    ],
    "output":{
        "data_source":"dir",
        "domain":"stage",
        "collection":"",
        "add_date":false
    },
    "cmd":"python main.py"
}