{
  "info":{
    "name":"C03_R003-platformAgesGenderRate",
    "version":"1.0",
    "description":"Calcula el ",
    "created":"2018.11.05",
    "executed":"",
    "blocked":0
  },
  "params":{

  },
  "inputs":[
    {
      "data_source":"dir",
      "domain":"processed",
      "collection":"C03_E003-platformAgesGenderRate",
      "docs":[
        "C03_E003_FACEBOOK.csv",
        "C03_E003_INSTAGRAM.csv",
        "C03_E003_TWITTER.csv",
        "C03_E003_YOUTUBE.csv"
      ]
    }
  ],
  "output":{
    "data_source":"mongo",
    "domain":"reports",
    "collection":"",
    "add_date":false
  },
  "cmd":"python main.py"
}
