{
  "panels": [
    {
      "widgets": [
        {
          "mongo_doc": "5b30e7be9c99ea2918a8ef5e",
          "widget_script": "widget_timeserie_multilayer",
          "size": "100",
          "panel": "left",
          "active": true,
          "config": {
            "allow_export": false
          },
          "meta": {
            "collection": "C01_R001.0_Facebook",
            "description": "Facebook"
          }
        },
        {
          "mongo_doc": "5b30e7d39c99ea1c04c9e438",
          "widget_script": "widget_timeserie_multilayer",
          "size": "100",
          "panel": "left",
          "active": true,
          "config": {
            "allow_export": false
          },
          "meta": {
            "collection": "C01_R001.0_Instagaram",
            "description": "Instagram"
          }
        },
        {
          "mongo_doc": "5b30e7ea9c99ea1a1ccb29a0",
          "widget_script": "widget_timeserie_multilayer",
          "size": "100",
          "panel": "left",
          "active": true,
          "config": {
            "allow_export": false
          },
          "meta": {
            "collection": "C01_R001.0_Twitter",
            "description": "Twitter"
          }
        },
        {
          "mongo_doc": "5b30e8019c99ea284c518114",
          "widget_script": "widget_timeserie_multilayer",
          "size": "100",
          "panel": "left",
          "active": true,
          "config": {
            "allow_export": false
          },
          "meta": {
            "collection": "C01_R001.0_Youtube",
            "description": "Youtube"
          }
        },


        {
          "mongo_doc": "5b2539aa9c99ea04286ad72d",
          "widget_script": "widget_meter_timeserie",
          "size": "100",
          "panel": "right",
          "active": true,
          "config": {
            "allow_export": false
          },
          "meta": {
            "collection": "C01_R002.0_regions-sum",
            "description": ""
          }
        },
        {
          "mongo_doc": "5b2539aa9c99ea04286ad72d",
          "widget_script": "widget_meter_timeserie",
          "size": "100",
          "panel": "right",
          "active": true,
          "config": {
            "allow_export": false
          },
          "meta": {
            "collection": "C01_R002.0_regions-sum",
            "description": ""
          }
        },


        {
          "mongo_doc": "5b2539aa9c99ea04286ad72d",
          "widget_script": "widget_meter_timeserie",
          "size": "100",
          "panel": "left",
          "active": true,
          "config": {
            "allow_export": false
          },
          "meta": {
            "collection": "C01_R002.0_regions-sum",
            "description": ""
          }
        },


        {
          "mongo_doc": "5b30e9699c99ea2704d7c21e",
          "widget_script": "widget_timeserie_multilayer",
          "size": "100",
          "panel": "right",
          "active": true,
          "config": {
            "allow_export": false
          },
          "meta": {
            "collection": "C01_R003.0_Barcelona",
            "description": "Barcelona"
          }
        },


        {
          "mongo_doc": "5b30e9749c99ea1924937df2",
          "widget_script": "widget_timeserie_multilayer",
          "size": "100",
          "panel": "right",
          "active": true,
          "config": {
            "allow_export": false
          },
          "meta": {
            "collection": "C01_R003.0_Bilbao",
            "description": "Bilbao"
          }
        },
        {
          "mongo_doc": "5b30e99d9c99ea28ac6731b4",
          "widget_script": "widget_timeserie_multilayer",
          "size": "100",
          "panel": "right",
          "active": true,
          "config": {
            "allow_export": false
          },
          "meta": {
            "collection": "C01_R003.0_Madrid",
            "description": "Madrid"
          }
        }
      ],
      "attrs": {
        "name": "Region",
        "description": "Este panel ofrece los resultados de las diferentes plataformas según las regiones registradas. Los diferentes widgets permiten interactuar con la selección de ciudades y plataformas, pudiendo así comparar los resultados.",
        "icon": "map"
      }
    },
    {
      "widgets": [

        {
          "mongo_doc": "5b260f139c99ea1fc8f53de7",
          "widget_script": "widget_single_groups_rate",
          "size": "100",
          "panel": "right",
          "active": true,
          "config": {
            "allow_export": false
          },
          "meta": {
            "collection": "C02_R002_allproducts-platform-rates",
            "description": ""

          }
        },
        {
          "mongo_doc": "5b260f2f9c99ea1af48168b4",
          "widget_script": "widget_single_series_groups_rate",
          "size": "100",
          "panel": "left",
          "active": true,
          "config": {
            "allow_export": false
          },
          "meta": {
            "collection": "C02_R003_allproducts-platform-rates",
            "description": ""

          }
        }
      ],
      "attrs": {
        "name": "Productos",
        "description": "Este permite comparar las tendencias en las búsquedas de los usuarios en las diferentes plataformas y meses. Se puede establecer un filtro en los rersultados de los Ctr, según los bloques de productos.",
        "icon": "product"
      }
    },
    {
      "widgets": [

        {
          "mongo_doc": "5b30ead39c99ea1450b9596e",
          "widget_script": "widget_selection_donut",
          "size": "50",
          "panel": "left",
          "active": true,
          "config": {
            "allow_export": false
          },
          "meta": {
            "collection": "C03_R001_platforms_ages-rates",
            "description": ""

          }
        },
        {
          "mongo_doc": "5b30ead39c99ea1450b9596e",
          "widget_script": "widget_selection_donut",
          "size": "50",
          "panel": "left",
          "active": true,
          "config": {
            "allow_export": false
          },
          "meta": {
            "collection": "C03_R001_platforms_ages-rates",
            "description": ""

          }
        },
        {
          "mongo_doc": "5b30ead39c99ea1450b9596e",
          "widget_script": "widget_selection_donut",
          "size": "50",
          "panel": "left",
          "active": true,
          "config": {
            "allow_export": false
          },
          "meta": {
            "collection": "C03_R001_platforms_ages-rates",
            "description": ""

          }
        },
        {
          "mongo_doc": "5b30ead39c99ea1450b9596e",
          "widget_script": "widget_selection_donut",
          "size": "50",
          "panel": "left",
          "active": true,
          "config": {
            "allow_export": false
          },
          "meta": {
            "collection": "C03_R001_platforms_ages-rates",
            "description": ""

          }
        },





        {
          "mongo_doc": "5b30eb009c99ea22e81058bf",
          "widget_script": "widget_selection_rows",
          "size": "100",
          "panel": "right",
          "active": true,
          "config": {
            "allow_export": false
          },
          "meta": {
            "collection": "C03_R002_platforms_gender-rates",
            "description": ""

          }
        },
        {
          "mongo_doc": "5b30eb009c99ea22e81058bf",
          "widget_script": "widget_selection_rows",
          "size": "100",
          "panel": "right",
          "active": true,
          "config": {
            "allow_export": false
          },
          "meta": {
            "collection": "C03_R002_platforms_gender-rates",
            "description": ""

          }
        } ,
        {
          "mongo_doc": "5b30eb009c99ea22e81058bf",
          "widget_script": "widget_selection_rows",
          "size": "100",
          "panel": "right",
          "active": true,
          "config": {
            "allow_export": false
          },
          "meta": {
            "collection": "C03_R002_platforms_gender-rates",
            "description": ""

          }
        },
       {
         "mongo_doc": "5b30eb009c99ea22e81058bf",
         "widget_script": "widget_selection_rows",
         "size": "100",
         "panel": "right",
         "active": true,
         "config": {
           "allow_export": false
         },
         "meta": {
           "collection": "C03_R002_platforms_gender-rates",
           "description": ""

         }
       }



      ],
      "attrs": {
        "name": "Usuarios",
        "description": "Este panel ofrece una comparativa de los diferentes grupos de usuarios por genero y rangos de edad en las diferentes plataformas.",
        "icon": "poblation"
      }
    }
  ]
}
