{
    "info":{
        "name":"C01_R001.0-ctrPlatform",
        "version":"1.0",
        "description":"Calcula el ctr de todas dias y regiones para la plataforma seleccionada",
        "created":"2018.11.05",
        "executed":"",
        "blocked":0,

        "reporter":{
          "builder_class":"MultiLayerTimeSerie",
          "widget_text":"Ctr de los dias y regiones para la plataforma seleccionada"
        }
    },
    "params":{
        "platformId":{
            "required":true,
            "type":"integer",
            "example":"platformId=0",
            "description":"max= 3"
        }
    },
    "inputs":[
        {
            "data_source":"dir",
            "domain":"processed",
            "collection":"C01_E001-ctrByPlatform",
            "docs":[
                "C01_E001_Facebook.csv",
                "C01_E001_Instagaram.csv",
                "C01_E001_Twitter.csv",
                "C01_E001_Youtube.csv"
            ]
        }
    ],
    "output":{
        "data_source":"mongo",
        "domain":"reports",
        "collection":"",
        "add_date":false
    },
    "cmd":"python main.py platformId=0"
}
