{
  "panels": [
    {
      "widgets": [
        {
          "mongo_doc": "5b2e5e4a9c99ea0b8491bd04",
          "widget_script": "widget_timeserie_multilayer",
          "size": "100",
          "panel": "left",
          "active": true,
          "config": {
            "allow_export": false
          },
          "meta": {
            "collection": "C01_R001.0_Facebook",
            "description": "Facebook"
          }
        },
        {
          "mongo_doc": "5b2e5e5b9c99ea1be0570b4f",
          "widget_script": "widget_timeserie_multilayer",
          "size": "100",
          "panel": "left",
          "active": true,
          "config": {
            "allow_export": false
          },
          "meta": {
            "collection": "C01_R001.0_Instagaram",
            "description": "Instagram"
          }
        },
        {
          "mongo_doc": "5b2e5e6a9c99ea0b3ca828b5",
          "widget_script": "widget_timeserie_multilayer",
          "size": "100",
          "panel": "left",
          "active": true,
          "config": {
            "allow_export": false
          },
          "meta": {
            "collection": "C01_R001.0_Twitter",
            "description": "Twitter"
          }
        },
        {
          "mongo_doc": "5b2e5e7c9c99ea10e44d67c8",
          "widget_script": "widget_timeserie_multilayer",
          "size": "100",
          "panel": "left",
          "active": true,
          "config": {
            "allow_export": false
          },
          "meta": {
            "collection": "C01_R001.0_Youtube",
            "description": "Youtube"
          }
        },


        {
          "mongo_doc": "5b2539aa9c99ea04286ad72d",
          "widget_script": "widget_meter_timeserie",
          "size": "100",
          "panel": "right",
          "active": true,
          "config": {
            "allow_export": false
          },
          "meta": {
            "collection": "C01_R002.0_regions-sum",
            "description": ""
          }
        },
        {
          "mongo_doc": "5b2539aa9c99ea04286ad72d",
          "widget_script": "widget_meter_timeserie",
          "size": "100",
          "panel": "right",
          "active": true,
          "config": {
            "allow_export": false
          },
          "meta": {
            "collection": "C01_R002.0_regions-sum",
            "description": ""
          }
        },


        {
          "mongo_doc": "5b2539aa9c99ea04286ad72d",
          "widget_script": "widget_meter_timeserie",
          "size": "100",
          "panel": "left",
          "active": true,
          "config": {
            "allow_export": false
          },
          "meta": {
            "collection": "C01_R002.0_regions-sum",
            "description": ""
          }
        },


        {
          "mongo_doc": "5b253a379c99ea1c881daead",
          "widget_script": "widget_timeserie_multilayer",
          "size": "100",
          "panel": "right",
          "active": true,
          "config": {
            "allow_export": false
          },
          "meta": {
            "collection": "C01_R003.0_Barcelona",
            "description": "Barcelona"
          }
        },


        {
          "mongo_doc": "5b253a3f9c99ea1b5c0c3683",
          "widget_script": "widget_timeserie_multilayer",
          "size": "100",
          "panel": "right",
          "active": true,
          "config": {
            "allow_export": false
          },
          "meta": {
            "collection": "C01_R003.0_Bilbao",
            "description": "Bilbao"
          }
        },
        {
          "mongo_doc": "5b253a679c99ea1dd81a0385",
          "widget_script": "widget_timeserie_multilayer",
          "size": "100",
          "panel": "right",
          "active": true,
          "config": {
            "allow_export": false
          },
          "meta": {
            "collection": "C01_R003.0_Madrid",
            "description": "Madrid"
          }
        }



      ],
      "attrs": {
        "name": "Panel 1",
        "description": "Este es el primer panel y describe ...",
        "icon": "map"
      }
    }
  ]
}
