{
  "date_creation": "2018.06.25", 
  "extras": {}, 
  "inputs": [
    {
      "collection": "E001-readXcel", 
      "data_source": "dir", 
      "docs": [
        "E001_FACEBOOK.csv", 
        "E001_INSTAGRAM.csv", 
        "E001_TWITTER.csv", 
        "E001_YOUTUBE.csv"
      ], 
      "domain": "processed"
    }, 
    {
      "collection": "test-postalcode", 
      "data_source": "dir", 
      "docs": [
        "001_2018.05.03_ZONES.csv"
      ], 
      "domain": "master"
    }
  ], 
  "output": {
    "collection": "C01_E001-ctrByPlatform", 
    "data_source": "dir", 
    "docs": [], 
    "domain": "processed"
  }, 
  "params": {
    "platformId": {
      "description": "Selecciona la plataforma, igual que docs de inputs", 
      "example": "platformId=0", 
      "required": true, 
      "type": "integer", 
      "value": 3
    }
  }, 
  "script_name": "C01_E001-ctrByPlatform"
}