Age,Gender,Prints,Hits,ctr,meanAge
18-30,Female,3306633,302181,9.14,24
18-30,Male,3310017,300443,9.08,24
31-45,Female,3305852,332474,10.06,38
31-45,Male,3296342,331335,10.05,38
46-60,Female,3304774,366067,11.08,53
46-60,Male,3307720,366961,11.09,53
61-99,Female,3303283,300519,9.1,80
61-99,Male,3302854,300774,9.11,80
