date_,prints_facebook,prints_instagram,prints_twitter,prints_youtube,hits_facebook,hits_instagram,hits_twitter,hits_youtube,year,month,day,City
2017-01-01,10387,10165,10204,10881,1071,1153,1026,1091,2017,01,01,Sevilla
2017-01-02,10471,10472,9941,9547,1018,1145,1123,929,2017,01,02,Sevilla
2017-01-03,10495,10392,10028,10174,1035,1201,1077,1098,2017,01,03,Sevilla
2017-01-04,9615,11155,9579,9333,978,1150,1029,941,2017,01,04,Sevilla
2017-01-05,9893,9654,9277,9591,1007,1046,913,1016,2017,01,05,Sevilla
2017-01-06,11119,9315,10325,10059,1145,1083,955,1015,2017,01,06,Sevilla
2017-01-07,10137,9927,10093,10297,1010,1069,1136,1107,2017,01,07,Sevilla
2017-01-08,9711,11714,9695,9901,1027,1168,1030,1034,2017,01,08,Sevilla
2017-01-09,10324,10424,9378,10073,1141,1170,1084,1203,2017,01,09,Sevilla
2017-01-10,10257,11140,9722,9666,1193,1268,1039,1025,2017,01,10,Sevilla
2017-01-11,9880,9783,9906,10074,996,1061,1057,1120,2017,01,11,Sevilla
2017-01-12,10371,10457,10773,10211,1220,1133,1095,1077,2017,01,12,Sevilla
2017-01-13,10198,10580,10615,9678,1162,1071,1154,986,2017,01,13,Sevilla
2017-01-14,9940,10964,10544,9793,1072,1197,1167,941,2017,01,14,Sevilla
2017-01-15,10901,10118,8759,9576,1199,1166,950,1057,2017,01,15,Sevilla
2017-01-16,11445,9985,10231,10186,1118,928,1008,946,2017,01,16,Sevilla
2017-01-17,10470,11077,9978,10650,1065,1250,980,1080,2017,01,17,Sevilla
2017-01-18,10481,10759,10359,9826,1151,1063,1254,1074,2017,01,18,Sevilla
2017-01-19,10298,10664,10530,9945,1033,1089,1216,1049,2017,01,19,Sevilla
2017-01-20,9661,9795,10827,10548,982,1060,1192,1037,2017,01,20,Sevilla
2017-01-21,9759,10802,10189,10433,1064,1167,1022,1264,2017,01,21,Sevilla
2017-01-22,10189,9089,10244,9568,1188,896,1006,1004,2017,01,22,Sevilla
2017-01-23,9958,9928,10640,10419,1064,1053,1152,1120,2017,01,23,Sevilla
2017-01-24,9029,10820,10454,9879,976,1188,1010,1058,2017,01,24,Sevilla
2017-01-25,10301,10580,10183,11110,1117,1186,1151,1175,2017,01,25,Sevilla
2017-01-26,10541,9683,10069,10455,1225,1047,1103,1058,2017,01,26,Sevilla
2017-01-27,10325,10369,10117,10805,1028,1102,1109,1085,2017,01,27,Sevilla
2017-01-28,10305,10515,9732,10166,1212,1074,1035,1093,2017,01,28,Sevilla
2017-01-29,9826,9291,11155,9595,1195,948,1314,893,2017,01,29,Sevilla
2017-01-30,10654,10277,11195,11069,1062,922,1229,1054,2017,01,30,Sevilla
2017-01-31,9793,11028,10045,9990,955,1215,1079,1041,2017,01,31,Sevilla
2017-02-01,9560,9672,10830,10639,1037,1149,1029,1238,2017,02,01,Sevilla
2017-02-02,10566,10082,10321,10543,1056,988,1097,1156,2017,02,02,Sevilla
2017-02-03,9465,10146,9468,9804,1001,1098,1019,1084,2017,02,03,Sevilla
2017-02-04,10263,10056,10688,10361,1045,1096,1064,1014,2017,02,04,Sevilla
2017-02-05,11501,10542,10302,9870,1140,1153,1138,1005,2017,02,05,Sevilla
2017-02-06,10471,9837,10439,9245,1078,1112,1123,1055,2017,02,06,Sevilla
2017-02-07,10029,9431,10477,10258,1134,996,892,1035,2017,02,07,Sevilla
2017-02-08,9953,9080,10836,10335,1094,1035,1137,1112,2017,02,08,Sevilla
2017-02-09,9860,10603,10606,9823,898,1041,1103,1163,2017,02,09,Sevilla
2017-02-10,10435,9029,9297,9735,1222,901,900,1013,2017,02,10,Sevilla
2017-02-11,10541,9582,10814,10532,1031,1010,1048,1123,2017,02,11,Sevilla
2017-02-12,10584,10733,9759,10002,1031,1092,937,975,2017,02,12,Sevilla
2017-02-13,9124,9508,10658,10354,999,1087,994,1128,2017,02,13,Sevilla
2017-02-14,10124,10116,9749,11074,1058,956,1308,1169,2017,02,14,Sevilla
2017-02-15,8876,10508,9960,10147,958,1032,1085,1066,2017,02,15,Sevilla
2017-02-16,10545,10850,10741,9923,1204,1151,1061,1061,2017,02,16,Sevilla
2017-02-17,9952,9891,9848,10321,1047,1025,979,1095,2017,02,17,Sevilla
2017-02-18,10909,10615,10143,10144,1207,1168,1097,999,2017,02,18,Sevilla
2017-02-19,9648,10611,9740,10245,946,1099,961,974,2017,02,19,Sevilla
2017-02-20,10306,10162,9503,9535,1024,1053,1019,1046,2017,02,20,Sevilla
2017-02-21,9822,10787,9482,9999,1031,1121,979,1047,2017,02,21,Sevilla
2017-02-22,10263,10393,10687,10452,991,1086,1158,1137,2017,02,22,Sevilla
2017-02-23,11323,8350,10232,10534,1128,867,996,1062,2017,02,23,Sevilla
2017-02-24,9636,10639,9778,10490,969,1059,1070,1120,2017,02,24,Sevilla
2017-02-25,11062,9596,10761,10155,1215,1000,1112,1139,2017,02,25,Sevilla
2017-02-26,10614,10953,9688,10137,1236,1142,996,1241,2017,02,26,Sevilla
2017-02-27,10860,10127,9787,9804,1200,1098,1032,1044,2017,02,27,Sevilla
2017-02-28,10614,9862,10691,10731,1013,1063,1075,1225,2017,02,28,Sevilla
2017-03-01,9835,10388,10182,10178,1095,1109,1111,1070,2017,03,01,Sevilla
2017-03-02,9889,10248,9781,10487,952,1141,952,1128,2017,03,02,Sevilla
2017-03-03,10265,9675,9068,10339,1101,968,871,1060,2017,03,03,Sevilla
2017-03-04,10079,9477,11213,10160,1086,990,1118,983,2017,03,04,Sevilla
2017-03-05,10571,9812,11070,10358,1106,1071,1125,1141,2017,03,05,Sevilla
2017-03-06,10787,10687,10459,10285,1032,1125,1099,1043,2017,03,06,Sevilla
2017-03-07,10624,9402,10121,10843,1186,945,1147,1169,2017,03,07,Sevilla
2017-03-08,10648,9647,10517,10380,1097,970,1209,985,2017,03,08,Sevilla
2017-03-09,10159,10554,9403,9696,1076,1134,961,1071,2017,03,09,Sevilla
2017-03-10,10087,9723,10795,9566,1047,1045,1141,1099,2017,03,10,Sevilla
2017-03-11,9935,9969,10542,10078,1056,1138,1058,1064,2017,03,11,Sevilla
2017-03-12,10128,10696,9584,9801,1100,1290,1008,972,2017,03,12,Sevilla
2017-03-13,10434,9930,10671,10114,1228,1143,1050,960,2017,03,13,Sevilla
2017-03-14,9650,10706,10448,9814,1048,1101,1076,1011,2017,03,14,Sevilla
2017-03-15,10203,9637,10600,9692,979,832,1175,1006,2017,03,15,Sevilla
2017-03-16,10986,10391,10448,9754,1156,1154,1118,961,2017,03,16,Sevilla
2017-03-17,10119,10121,10521,10345,1071,1125,1118,1013,2017,03,17,Sevilla
2017-03-18,10382,10147,10721,10290,1175,955,1278,1097,2017,03,18,Sevilla
2017-03-19,9981,9613,10598,10107,1043,977,1059,961,2017,03,19,Sevilla
2017-03-20,10437,9665,10704,10774,971,1145,1159,1046,2017,03,20,Sevilla
2017-03-21,11287,9454,9925,9635,1161,953,1029,1043,2017,03,21,Sevilla
2017-03-22,10234,11279,10680,8905,1036,1159,1172,910,2017,03,22,Sevilla
2017-03-23,9548,10118,9309,11148,996,1060,860,1313,2017,03,23,Sevilla
2017-03-24,11061,10045,9471,9990,1198,1082,1088,1034,2017,03,24,Sevilla
2017-03-25,9978,9381,10612,10147,939,1006,1091,1109,2017,03,25,Sevilla
2017-03-26,10181,11058,10775,9821,1029,1123,1097,1108,2017,03,26,Sevilla
2017-03-27,10507,10160,10044,9465,1016,1027,1055,921,2017,03,27,Sevilla
2017-03-28,11197,9993,10665,9626,1112,1074,1138,1020,2017,03,28,Sevilla
2017-03-29,10310,10379,10187,11104,1129,1060,956,1091,2017,03,29,Sevilla
2017-03-30,10922,10265,10490,9348,1245,1102,1093,1098,2017,03,30,Sevilla
2017-03-31,10630,10097,10128,10543,1067,1105,1149,1116,2017,03,31,Sevilla
2017-04-01,9678,9849,10384,10217,1099,980,1151,1151,2017,04,01,Sevilla
2017-04-02,9103,10038,10393,9236,978,1138,1082,1096,2017,04,02,Sevilla
2017-04-03,10266,9799,9326,9117,1045,1192,955,862,2017,04,03,Sevilla
2017-04-04,10844,10022,10728,9705,1167,1042,1070,1029,2017,04,04,Sevilla
2017-04-05,9443,10382,10371,10260,994,1108,1069,1005,2017,04,05,Sevilla
2017-04-06,9223,10326,9935,9833,862,1165,1029,1135,2017,04,06,Sevilla
2017-04-07,10136,11533,10365,9518,925,1289,1070,1115,2017,04,07,Sevilla
2017-04-08,10081,9938,9779,10999,968,992,987,1148,2017,04,08,Sevilla
2017-04-09,10560,10042,10396,9885,1063,995,992,1227,2017,04,09,Sevilla
2017-04-10,10262,9654,9663,10132,1111,1047,1016,1156,2017,04,10,Sevilla
2017-04-11,9807,10257,10851,10732,988,1027,1096,1102,2017,04,11,Sevilla
2017-04-12,10785,10318,9812,9812,1128,1069,1038,1113,2017,04,12,Sevilla
2017-04-13,11685,9215,10979,10694,1175,836,1182,1126,2017,04,13,Sevilla
2017-04-14,10512,10717,9899,9421,1070,1058,1167,1055,2017,04,14,Sevilla
2017-04-15,10559,9524,9635,10238,1199,1048,1015,1116,2017,04,15,Sevilla
2017-04-16,10488,10560,11330,10636,1075,1264,1152,1092,2017,04,16,Sevilla
2017-04-17,10419,10447,9900,9445,1095,1150,1148,1063,2017,04,17,Sevilla
2017-04-18,9858,9656,10353,9979,1043,988,976,1131,2017,04,18,Sevilla
2017-04-19,10421,10920,10931,10282,983,1198,1234,1070,2017,04,19,Sevilla
2017-04-20,10430,9191,10370,9748,1106,983,1091,1080,2017,04,20,Sevilla
2017-04-21,9588,10012,10486,9955,1071,1133,1022,1005,2017,04,21,Sevilla
2017-04-22,10771,9123,9682,10491,1129,1004,937,1117,2017,04,22,Sevilla
2017-04-23,10944,9202,9530,9911,1151,975,867,1007,2017,04,23,Sevilla
2017-04-24,10207,9201,11022,10440,1122,977,1135,995,2017,04,24,Sevilla
2017-04-25,10343,10981,10356,10283,1153,1306,1167,1150,2017,04,25,Sevilla
2017-04-26,10497,10424,10349,9184,1146,1067,1010,941,2017,04,26,Sevilla
2017-04-27,9753,9548,10384,10692,805,1060,1051,1067,2017,04,27,Sevilla
2017-04-28,10027,9958,10984,10811,1002,1042,1209,1244,2017,04,28,Sevilla
2017-04-29,10052,9778,9936,9982,1039,1151,1068,1019,2017,04,29,Sevilla
2017-04-30,10080,10275,10401,9789,1152,1258,1046,1098,2017,04,30,Sevilla
2017-05-01,11359,10823,10247,9568,1215,1239,1111,959,2017,05,01,Sevilla
2017-05-02,10104,10245,10560,9582,1083,993,1023,1011,2017,05,02,Sevilla
2017-05-03,9659,9758,10058,9790,866,969,1128,1089,2017,05,03,Sevilla
2017-05-04,10014,10487,9600,9561,1069,1130,981,945,2017,05,04,Sevilla
2017-05-05,9847,10268,9940,10666,968,1132,995,1021,2017,05,05,Sevilla
2017-05-06,10586,10127,9638,9703,1148,1044,937,1067,2017,05,06,Sevilla
2017-05-07,10624,11392,9979,9304,1104,1383,1059,1000,2017,05,07,Sevilla
2017-05-08,10092,8981,10794,9525,1063,860,1166,926,2017,05,08,Sevilla
2017-05-09,9837,10731,10392,9677,937,1150,1162,1077,2017,05,09,Sevilla
2017-05-10,10458,10235,10957,10079,982,906,1160,1211,2017,05,10,Sevilla
2017-05-11,9940,9959,9870,10061,941,1076,1145,995,2017,05,11,Sevilla
2017-05-12,10283,9762,9998,10154,1083,1085,966,1055,2017,05,12,Sevilla
2017-05-13,10052,9846,10490,10188,996,1073,1085,1073,2017,05,13,Sevilla
2017-05-14,10114,9910,10207,10354,1039,969,1168,1141,2017,05,14,Sevilla
2017-05-15,10157,10084,10325,11111,1076,1220,967,1303,2017,05,15,Sevilla
2017-05-16,9846,10144,10875,10739,1046,1028,1099,1264,2017,05,16,Sevilla
2017-05-17,10623,9475,10747,9898,1026,1105,1080,1139,2017,05,17,Sevilla
2017-05-18,10808,9535,10812,10372,1153,1014,1092,1124,2017,05,18,Sevilla
2017-05-19,9816,9785,10543,10019,949,1036,1046,1043,2017,05,19,Sevilla
2017-05-20,11211,10477,9659,10644,1272,1030,1087,1130,2017,05,20,Sevilla
2017-05-21,10437,10955,10698,10669,1094,1144,1140,1291,2017,05,21,Sevilla
2017-05-22,10435,10296,11126,10568,917,1163,1193,1066,2017,05,22,Sevilla
2017-05-23,10284,9561,11055,9899,1029,967,1042,1126,2017,05,23,Sevilla
2017-05-24,10620,10227,10973,9366,1006,1117,1252,960,2017,05,24,Sevilla
2017-05-25,9553,10560,10041,9433,1021,1201,993,978,2017,05,25,Sevilla
2017-05-26,10194,10113,9913,10520,1021,998,1166,1228,2017,05,26,Sevilla
2017-05-27,9635,9845,10299,10668,1099,1031,1127,1169,2017,05,27,Sevilla
2017-05-28,10772,10727,10889,10290,1141,1154,1168,1027,2017,05,28,Sevilla
2017-05-29,9795,9981,9390,10177,969,1252,961,1006,2017,05,29,Sevilla
2017-05-30,8748,9215,9745,8443,860,823,860,736,2017,05,30,Sevilla
2017-05-31,9406,8974,8504,8308,781,819,791,845,2017,05,31,Sevilla
2017-06-01,9446,9058,7918,9690,818,932,711,841,2017,06,01,Sevilla
2017-06-02,8464,9597,9192,8620,804,980,957,784,2017,06,02,Sevilla
2017-06-03,8666,8344,8502,9468,844,725,794,879,2017,06,03,Sevilla
2017-06-04,8385,9403,8628,8818,707,777,793,925,2017,06,04,Sevilla
2017-06-05,8882,9441,9085,8937,833,853,823,777,2017,06,05,Sevilla
2017-06-06,9195,9399,7920,9243,904,844,769,901,2017,06,06,Sevilla
2017-06-07,8866,9601,9235,9311,775,862,830,785,2017,06,07,Sevilla
2017-06-08,8878,9671,8302,9003,724,811,742,752,2017,06,08,Sevilla
2017-06-09,8388,9488,8876,8770,726,973,928,916,2017,06,09,Sevilla
2017-06-10,8798,8652,9234,8634,716,771,803,720,2017,06,10,Sevilla
2017-06-11,9259,9229,9066,8318,843,874,771,752,2017,06,11,Sevilla
2017-06-12,7921,9260,9452,8625,765,788,919,741,2017,06,12,Sevilla
2017-06-13,9007,8393,8480,9412,916,811,757,885,2017,06,13,Sevilla
2017-06-14,9252,8670,8184,8655,772,681,838,823,2017,06,14,Sevilla
2017-06-15,8928,8612,8273,8845,733,797,795,775,2017,06,15,Sevilla
2017-06-16,8534,8940,8584,8969,737,812,858,818,2017,06,16,Sevilla
2017-06-17,8639,8415,9631,9081,781,722,850,829,2017,06,17,Sevilla
2017-06-18,9381,8988,8807,8863,806,942,703,855,2017,06,18,Sevilla
2017-06-19,8410,8726,8841,8658,781,835,793,734,2017,06,19,Sevilla
2017-06-20,9382,8625,8625,9318,868,784,929,826,2017,06,20,Sevilla
2017-06-21,9334,9043,8847,9082,827,734,800,760,2017,06,21,Sevilla
2017-06-22,8906,9343,8593,9155,785,934,783,804,2017,06,22,Sevilla
2017-06-23,9489,8811,9373,8698,826,722,839,827,2017,06,23,Sevilla
2017-06-24,8985,9024,9198,8902,780,847,814,768,2017,06,24,Sevilla
2017-06-25,9200,8463,8647,8813,827,749,666,830,2017,06,25,Sevilla
2017-06-26,8733,9226,9392,8317,824,898,938,904,2017,06,26,Sevilla
2017-06-27,8261,9445,9208,8728,828,932,954,780,2017,06,27,Sevilla
2017-06-28,9329,8011,9779,9475,698,759,909,899,2017,06,28,Sevilla
2017-06-29,10098,8913,8810,8288,844,835,749,844,2017,06,29,Sevilla
2017-06-30,8688,9741,8375,9178,714,963,825,909,2017,06,30,Sevilla
2017-07-01,8059,9018,9512,8679,686,821,883,774,2017,07,01,Sevilla
2017-07-02,7343,8792,8836,8247,698,789,787,824,2017,07,02,Sevilla
2017-07-03,9342,8577,8574,8560,887,869,820,806,2017,07,03,Sevilla
2017-07-04,9689,8863,9278,7990,954,780,765,871,2017,07,04,Sevilla
2017-07-05,8637,8621,9088,9002,719,846,806,844,2017,07,05,Sevilla
2017-07-06,8735,8189,8758,8290,787,752,851,726,2017,07,06,Sevilla
2017-07-07,9995,9133,9713,7734,848,896,962,718,2017,07,07,Sevilla
2017-07-08,8065,9496,9360,8921,648,924,797,715,2017,07,08,Sevilla
2017-07-09,9490,9289,9231,9312,984,778,873,805,2017,07,09,Sevilla
2017-07-10,8579,8194,9278,9261,746,733,831,930,2017,07,10,Sevilla
2017-07-11,9268,8344,9443,8638,731,733,972,790,2017,07,11,Sevilla
2017-07-12,8446,8519,9198,9380,713,808,892,839,2017,07,12,Sevilla
2017-07-13,8930,8794,8470,9092,804,906,815,797,2017,07,13,Sevilla
2017-07-14,8658,8936,8690,8939,786,800,792,782,2017,07,14,Sevilla
2017-07-15,9364,8612,8797,9006,955,790,750,812,2017,07,15,Sevilla
2017-07-16,9153,8618,9502,9007,826,826,824,834,2017,07,16,Sevilla
2017-07-17,8997,9050,9381,8345,894,898,912,774,2017,07,17,Sevilla
2017-07-18,9426,8467,8854,8397,860,800,824,832,2017,07,18,Sevilla
2017-07-19,9449,8372,8408,8176,845,752,833,693,2017,07,19,Sevilla
2017-07-20,9921,9492,9170,9070,1025,883,747,782,2017,07,20,Sevilla
2017-07-21,9279,9102,8159,9215,804,828,779,857,2017,07,21,Sevilla
2017-07-22,9215,8463,8640,9061,781,818,772,792,2017,07,22,Sevilla
2017-07-23,8814,7978,8312,9213,856,618,782,914,2017,07,23,Sevilla
2017-07-24,8648,8531,10190,8174,769,805,868,756,2017,07,24,Sevilla
2017-07-25,8361,8619,7879,9398,820,833,717,765,2017,07,25,Sevilla
2017-07-26,8814,8698,9187,9630,775,825,850,975,2017,07,26,Sevilla
2017-07-27,8734,9473,9313,9027,751,825,840,836,2017,07,27,Sevilla
2017-07-28,8323,8429,9004,9238,760,803,751,801,2017,07,28,Sevilla
2017-07-29,8862,8523,8110,8528,812,729,761,797,2017,07,29,Sevilla
2017-07-30,9009,9196,8709,8663,846,840,781,745,2017,07,30,Sevilla
2017-07-31,8966,8175,8829,9210,772,827,797,923,2017,07,31,Sevilla
2017-08-01,7871,9007,9245,8177,731,788,775,769,2017,08,01,Sevilla
2017-08-02,8200,8701,8428,9746,817,785,732,851,2017,08,02,Sevilla
2017-08-03,9733,9194,7659,7884,800,824,750,636,2017,08,03,Sevilla
2017-08-04,9304,8875,8783,9634,914,920,784,772,2017,08,04,Sevilla
2017-08-05,8948,8472,9047,9573,859,756,770,939,2017,08,05,Sevilla
2017-08-06,8587,8848,9250,9556,755,842,896,797,2017,08,06,Sevilla
2017-08-07,9333,8738,8862,9518,889,776,797,903,2017,08,07,Sevilla
2017-08-08,8954,8954,10395,8676,926,818,893,827,2017,08,08,Sevilla
2017-08-09,9261,8917,8523,9979,842,877,728,899,2017,08,09,Sevilla
2017-08-10,8850,8400,7744,8519,809,725,737,856,2017,08,10,Sevilla
2017-08-11,8750,9650,8266,8514,803,881,721,702,2017,08,11,Sevilla
2017-08-12,9158,8988,9694,9749,829,858,884,970,2017,08,12,Sevilla
2017-08-13,8995,9111,9105,9340,875,856,737,841,2017,08,13,Sevilla
2017-08-14,9602,9414,8203,8869,859,784,770,823,2017,08,14,Sevilla
2017-08-15,9806,9277,9243,8912,890,884,936,856,2017,08,15,Sevilla
2017-08-16,8804,8731,8481,8620,900,771,724,819,2017,08,16,Sevilla
2017-08-17,8987,9050,9225,8265,848,828,936,706,2017,08,17,Sevilla
2017-08-18,8841,9791,8673,8681,691,885,791,815,2017,08,18,Sevilla
2017-08-19,8928,8854,9726,8610,778,796,802,725,2017,08,19,Sevilla
2017-08-20,9490,9011,8549,8121,857,879,830,752,2017,08,20,Sevilla
2017-08-21,8873,8733,9081,9213,761,789,895,907,2017,08,21,Sevilla
2017-08-22,8774,9391,9376,9301,774,844,792,850,2017,08,22,Sevilla
2017-08-23,9213,9592,9221,8704,929,873,920,845,2017,08,23,Sevilla
2017-08-24,9271,9029,9016,7947,852,738,820,715,2017,08,24,Sevilla
2017-08-25,8623,9028,7812,8903,781,914,744,846,2017,08,25,Sevilla
2017-08-26,9455,9493,8603,8411,835,924,775,812,2017,08,26,Sevilla
2017-08-27,7664,8547,8694,9921,750,699,674,908,2017,08,27,Sevilla
2017-08-28,9269,9312,8534,9036,812,898,719,817,2017,08,28,Sevilla
2017-08-29,8135,9366,9244,8630,721,849,752,797,2017,08,29,Sevilla
2017-08-30,8682,9170,9259,9623,808,847,840,900,2017,08,30,Sevilla
2017-08-31,9142,8954,8617,9386,824,840,682,811,2017,08,31,Sevilla
2017-09-01,8225,8870,8701,8656,805,841,829,808,2017,09,01,Sevilla
2017-09-02,9031,7862,9385,8239,811,707,839,740,2017,09,02,Sevilla
2017-09-03,8490,8371,9190,8564,775,747,855,841,2017,09,03,Sevilla
2017-09-04,9265,9487,9078,8225,789,836,839,795,2017,09,04,Sevilla
2017-09-05,8243,10072,8297,8660,720,938,681,747,2017,09,05,Sevilla
2017-09-06,8371,8853,9398,8141,767,864,849,718,2017,09,06,Sevilla
2017-09-07,9681,8144,9980,8807,775,717,998,719,2017,09,07,Sevilla
2017-09-08,8415,9434,9351,8950,706,851,872,870,2017,09,08,Sevilla
2017-09-09,8726,8509,9432,9319,758,714,798,867,2017,09,09,Sevilla
2017-09-10,9203,9753,9460,9402,964,1016,894,893,2017,09,10,Sevilla
2017-09-11,9253,8129,9125,8975,839,729,895,822,2017,09,11,Sevilla
2017-09-12,8967,8805,8969,9566,767,732,806,917,2017,09,12,Sevilla
2017-09-13,8669,9143,8516,8955,858,954,737,699,2017,09,13,Sevilla
2017-09-14,8182,8447,9307,8105,704,805,835,696,2017,09,14,Sevilla
2017-09-15,8690,9114,8841,9311,799,829,873,875,2017,09,15,Sevilla
2017-09-16,8887,8303,9415,9058,881,857,833,836,2017,09,16,Sevilla
2017-09-17,8815,9465,9165,7510,745,790,839,744,2017,09,17,Sevilla
2017-09-18,9181,8582,8580,9297,871,856,862,864,2017,09,18,Sevilla
2017-09-19,8100,8771,8886,9363,740,741,766,886,2017,09,19,Sevilla
2017-09-20,8397,9097,8795,8247,734,859,731,781,2017,09,20,Sevilla
2017-09-21,8602,9110,9296,8837,710,831,764,845,2017,09,21,Sevilla
2017-09-22,9198,9058,9191,8687,873,787,841,783,2017,09,22,Sevilla
2017-09-23,8117,9144,8339,9275,710,817,698,893,2017,09,23,Sevilla
2017-09-24,9229,9701,8950,8863,817,959,825,696,2017,09,24,Sevilla
2017-09-25,9495,9166,9609,9204,756,834,928,843,2017,09,25,Sevilla
2017-09-26,8800,9606,8445,8451,783,843,736,760,2017,09,26,Sevilla
2017-09-27,8915,9334,9644,8629,773,833,844,718,2017,09,27,Sevilla
2017-09-28,8597,9150,9990,9274,716,765,890,826,2017,09,28,Sevilla
2017-09-29,8199,8718,10081,8966,795,812,872,758,2017,09,29,Sevilla
2017-09-30,9021,9015,8608,9011,844,837,776,756,2017,09,30,Sevilla
2017-10-01,9059,7836,9207,9011,841,657,852,811,2017,10,01,Sevilla
2017-10-02,9375,8440,9084,8608,774,725,860,922,2017,10,02,Sevilla
2017-10-03,8422,8506,8878,8960,847,685,852,801,2017,10,03,Sevilla
2017-10-04,8356,8736,9761,9030,672,706,832,881,2017,10,04,Sevilla
2017-10-05,8625,7871,9591,9657,813,761,858,870,2017,10,05,Sevilla
2017-10-06,8047,9695,8837,8966,681,941,837,838,2017,10,06,Sevilla
2017-10-07,8489,7963,8720,8584,754,707,862,677,2017,10,07,Sevilla
2017-10-08,9392,8797,9485,9047,749,888,906,808,2017,10,08,Sevilla
2017-10-09,9048,8356,8465,8608,865,742,842,882,2017,10,09,Sevilla
2017-10-10,8654,9092,8423,9174,776,920,721,664,2017,10,10,Sevilla
2017-10-11,9713,9390,8715,8821,909,1007,822,801,2017,10,11,Sevilla
2017-10-12,9266,8817,8879,8985,907,925,737,985,2017,10,12,Sevilla
2017-10-13,8647,9313,9015,8999,772,900,776,820,2017,10,13,Sevilla
2017-10-14,8159,9166,9225,9343,787,681,796,841,2017,10,14,Sevilla
2017-10-15,8805,8222,9250,9015,765,770,813,780,2017,10,15,Sevilla
2017-10-16,8426,8815,9871,8839,696,742,1042,839,2017,10,16,Sevilla
2017-10-17,8909,8316,9091,9102,807,731,739,832,2017,10,17,Sevilla
2017-10-18,8790,8877,8864,8404,749,844,783,861,2017,10,18,Sevilla
2017-10-19,8923,8710,9287,8475,839,875,832,875,2017,10,19,Sevilla
2017-10-20,8201,9222,9245,9271,721,812,759,870,2017,10,20,Sevilla
2017-10-21,8429,8861,8076,8350,751,799,726,702,2017,10,21,Sevilla
2017-10-22,8944,8396,9075,8581,747,758,884,794,2017,10,22,Sevilla
2017-10-23,9320,9709,9129,8361,855,821,734,725,2017,10,23,Sevilla
2017-10-24,8673,8423,8917,8769,791,834,820,904,2017,10,24,Sevilla
2017-10-25,9209,9280,9164,8588,763,948,769,796,2017,10,25,Sevilla
2017-10-26,8797,8815,8789,8822,890,877,778,780,2017,10,26,Sevilla
2017-10-27,9137,8987,9048,9229,794,846,829,935,2017,10,27,Sevilla
2017-10-28,9115,8787,8351,9083,891,786,670,852,2017,10,28,Sevilla
2017-10-29,8488,9590,8969,8388,736,977,683,835,2017,10,29,Sevilla
2017-10-30,8555,8779,8709,9349,809,737,747,961,2017,10,30,Sevilla
2017-10-31,8348,9491,8770,8055,744,893,814,740,2017,10,31,Sevilla
2017-11-01,8565,7787,9104,8693,759,745,809,800,2017,11,01,Sevilla
2017-11-02,8318,8444,9654,8836,692,784,904,890,2017,11,02,Sevilla
2017-11-03,9128,8685,8801,9118,818,785,766,820,2017,11,03,Sevilla
2017-11-04,8630,9122,8779,8030,729,904,796,701,2017,11,04,Sevilla
2017-11-05,8575,8327,9172,9210,810,766,767,743,2017,11,05,Sevilla
2017-11-06,8756,9237,9253,8214,755,793,844,768,2017,11,06,Sevilla
2017-11-07,9430,8902,9305,8323,923,943,844,695,2017,11,07,Sevilla
2017-11-08,8978,8128,9047,8956,730,839,825,825,2017,11,08,Sevilla
2017-11-09,9947,9306,9078,9001,878,819,761,761,2017,11,09,Sevilla
2017-11-10,7980,9100,8602,9068,770,794,684,766,2017,11,10,Sevilla
2017-11-11,8701,9721,9150,7625,969,892,815,681,2017,11,11,Sevilla
2017-11-12,8575,8887,9854,8777,715,734,799,845,2017,11,12,Sevilla
2017-11-13,8654,8455,8691,9081,883,726,787,809,2017,11,13,Sevilla
2017-11-14,8372,9617,9094,8589,752,888,877,907,2017,11,14,Sevilla
2017-11-15,8762,8082,8721,8715,712,800,747,746,2017,11,15,Sevilla
2017-11-16,9109,9177,8891,8534,866,871,782,777,2017,11,16,Sevilla
2017-11-17,8508,8674,8816,8446,834,820,821,750,2017,11,17,Sevilla
2017-11-18,8917,8569,9034,7827,806,835,819,692,2017,11,18,Sevilla
2017-11-19,8155,8708,9118,9108,770,754,794,726,2017,11,19,Sevilla
2017-11-20,8776,8887,9030,9821,909,769,805,853,2017,11,20,Sevilla
2017-11-21,7931,8926,8820,8737,676,859,722,850,2017,11,21,Sevilla
2017-11-22,9741,9081,8463,8572,798,878,715,741,2017,11,22,Sevilla
2017-11-23,9449,8623,7882,8618,800,729,701,821,2017,11,23,Sevilla
2017-11-24,8429,9027,8523,9028,728,851,841,801,2017,11,24,Sevilla
2017-11-25,8725,9028,8301,8678,755,874,844,824,2017,11,25,Sevilla
2017-11-26,8303,8747,8613,9336,790,752,779,834,2017,11,26,Sevilla
2017-11-27,8823,8332,8794,9088,823,756,901,923,2017,11,27,Sevilla
2017-11-28,9534,9621,8706,8327,848,930,840,726,2017,11,28,Sevilla
2017-11-29,8849,9412,8868,9386,801,952,660,861,2017,11,29,Sevilla
2017-11-30,9347,8756,8723,8603,805,820,836,799,2017,11,30,Sevilla
2017-12-01,9300,8558,8844,9360,855,859,794,905,2017,12,01,Sevilla
2017-12-02,8718,9315,8770,8563,891,834,731,819,2017,12,02,Sevilla
2017-12-03,9887,9428,8302,9098,859,842,761,796,2017,12,03,Sevilla
2017-12-04,8907,9351,9409,8501,804,940,848,830,2017,12,04,Sevilla
2017-12-05,9266,8874,8699,9605,794,901,695,944,2017,12,05,Sevilla
2017-12-06,8656,8910,9441,9296,790,774,926,844,2017,12,06,Sevilla
2017-12-07,9450,9100,8174,9390,838,799,680,966,2017,12,07,Sevilla
2017-12-08,9586,8018,8250,9017,853,860,681,887,2017,12,08,Sevilla
2017-12-09,9754,9840,9399,8858,872,914,818,860,2017,12,09,Sevilla
2017-12-10,8212,8948,8911,9476,751,787,824,881,2017,12,10,Sevilla
2017-12-11,8531,9627,8616,8242,717,884,748,712,2017,12,11,Sevilla
2017-12-12,8688,8441,9361,8732,856,806,796,851,2017,12,12,Sevilla
2017-12-13,8419,9126,9576,9033,813,997,847,846,2017,12,13,Sevilla
2017-12-14,9411,8976,9437,8384,915,805,805,824,2017,12,14,Sevilla
2017-12-15,8300,9141,8252,7997,701,907,831,737,2017,12,15,Sevilla
2017-12-16,8632,8344,8118,8742,865,768,729,769,2017,12,16,Sevilla
2017-12-17,8177,9101,9165,8366,786,702,1008,760,2017,12,17,Sevilla
2017-12-18,8888,9288,8451,7787,733,856,819,668,2017,12,18,Sevilla
2017-12-19,9050,8561,9009,8688,804,823,863,714,2017,12,19,Sevilla
2017-12-20,8831,8875,9068,8931,815,958,776,804,2017,12,20,Sevilla
2017-12-21,8804,9365,9508,9298,736,824,781,953,2017,12,21,Sevilla
2017-12-22,8439,8963,9158,8889,796,835,767,774,2017,12,22,Sevilla
2017-12-23,8240,9473,8753,8218,735,854,808,760,2017,12,23,Sevilla
2017-12-24,8498,8484,8263,9322,783,767,814,828,2017,12,24,Sevilla
2017-12-25,8402,9143,8850,9489,662,787,858,855,2017,12,25,Sevilla
2017-12-26,9684,8484,9395,9484,807,810,889,912,2017,12,26,Sevilla
2017-12-27,9128,8544,8677,8598,840,704,763,794,2017,12,27,Sevilla
2017-12-28,8094,8689,8385,9166,741,763,705,837,2017,12,28,Sevilla
2017-12-29,9802,8872,8596,9074,933,824,805,766,2017,12,29,Sevilla
2017-12-30,5280,5169,4825,5047,1159,1154,1014,1151,2017,12,30,Sevilla
2017-12-31,5060,5120,4888,5218,1117,1109,977,1089,2017,12,31,Sevilla
