{
    "info":{
        "name":"E001-readXcel",
        "version":"1.0",
        "description":"Extract data-sheets from xcel file to separate files. The result is one file for each Social-Platform",
        "created":"2018.04.25",
        "executed":"",
        "blocked":0
    },
    "params":{},
    "inputs":[
        {
            "data_source":"dir",
            "domain":"stage",
            "collection":"DataPubliXSIFGY",
            "docs":["DataPubliXSIFGYvs2.xlsx"]
        }
    ],
    "output":{
        "data_source":"dir",
        "domain":"processed",
        "collection":"",
        "add_date":false
    },
    "comment":""
}