Platform,Date,Prints,Hits,ctr
Facebook,2017-01-01,4460,457,10.25
Facebook,2017-01-02,3961,522,13.18
Facebook,2017-01-03,4363,513,11.76
Facebook,2017-01-04,4273,499,11.68
Facebook,2017-01-05,4560,497,10.9
Facebook,2017-01-06,5084,619,12.18
Facebook,2017-01-07,4584,633,13.81
Facebook,2017-01-08,4125,484,11.73
Facebook,2017-01-09,4274,546,12.77
Facebook,2017-01-10,4395,586,13.33
Facebook,2017-01-11,3867,476,12.31
Facebook,2017-01-12,4564,497,10.89
Facebook,2017-01-13,4547,584,12.84
Facebook,2017-01-14,4791,466,9.73
Facebook,2017-01-15,4182,522,12.48
Facebook,2017-01-16,4217,482,11.43
Facebook,2017-01-17,4288,491,11.45
Facebook,2017-01-18,4526,518,11.44
Facebook,2017-01-19,4956,644,12.99
Facebook,2017-01-20,4256,563,13.23
Facebook,2017-01-21,4459,469,10.52
Facebook,2017-01-22,4792,473,9.87
Facebook,2017-01-23,4652,539,11.59
Facebook,2017-01-24,3711,405,10.91
Facebook,2017-01-25,4910,516,10.51
Facebook,2017-01-26,5125,608,11.86
Facebook,2017-01-27,4300,457,10.63
Facebook,2017-01-28,4018,446,11.1
Facebook,2017-01-29,4326,501,11.58
Facebook,2017-01-30,4232,464,10.96
Facebook,2017-01-31,4264,597,14.0
Facebook,2017-02-01,4183,461,11.02
Facebook,2017-02-02,4686,621,13.25
Facebook,2017-02-03,4336,527,12.15
Facebook,2017-02-04,4753,526,11.07
Facebook,2017-02-05,4815,616,12.79
Facebook,2017-02-06,4405,541,12.28
Facebook,2017-02-07,4371,511,11.69
Facebook,2017-02-08,4450,567,12.74
Facebook,2017-02-09,4493,489,10.88
Facebook,2017-02-10,4848,585,12.07
Facebook,2017-02-11,4589,512,11.16
Facebook,2017-02-12,4453,522,11.72
Facebook,2017-02-13,4875,486,9.97
Facebook,2017-02-14,4740,550,11.6
Facebook,2017-02-15,4687,598,12.76
Facebook,2017-02-16,3643,424,11.64
Facebook,2017-02-17,4579,548,11.97
Facebook,2017-02-18,4414,594,13.46
Facebook,2017-02-19,4351,572,13.15
Facebook,2017-02-20,4709,584,12.4
Facebook,2017-02-21,4511,529,11.73
Facebook,2017-02-22,5093,649,12.74
Facebook,2017-02-23,4478,482,10.76
Facebook,2017-02-24,4118,448,10.88
Facebook,2017-02-25,4370,531,12.15
Facebook,2017-02-26,4819,576,11.95
Facebook,2017-02-27,4895,523,10.68
Facebook,2017-02-28,4221,506,11.99
Facebook,2017-03-01,3555,532,14.96
Facebook,2017-03-02,4367,539,12.34
Facebook,2017-03-03,4255,459,10.79
Facebook,2017-03-04,4382,457,10.43
Facebook,2017-03-05,4402,574,13.04
Facebook,2017-03-06,4239,430,10.14
Facebook,2017-03-07,4682,474,10.12
Facebook,2017-03-08,4767,636,13.34
Facebook,2017-03-09,4064,499,12.28
Facebook,2017-03-10,4194,478,11.4
Facebook,2017-03-11,4811,545,11.33
Facebook,2017-03-12,4790,562,11.73
Facebook,2017-03-13,4468,571,12.78
Facebook,2017-03-14,4553,464,10.19
Facebook,2017-03-15,4139,535,12.93
Facebook,2017-03-16,3901,542,13.89
Facebook,2017-03-17,4527,481,10.63
Facebook,2017-03-18,4411,492,11.15
Facebook,2017-03-19,4232,542,12.81
Facebook,2017-03-20,4527,579,12.79
Facebook,2017-03-21,4699,487,10.36
Facebook,2017-03-22,4351,505,11.61
Facebook,2017-03-23,4369,466,10.67
Facebook,2017-03-24,4021,482,11.99
Facebook,2017-03-25,4090,468,11.44
Facebook,2017-03-26,3938,427,10.84
Facebook,2017-03-27,4682,638,13.63
Facebook,2017-03-28,4128,507,12.28
Facebook,2017-03-29,4453,566,12.71
Facebook,2017-03-30,4466,653,14.62
Facebook,2017-03-31,4027,502,12.47
Facebook,2017-04-01,4660,522,11.2
Facebook,2017-04-02,4499,525,11.67
Facebook,2017-04-03,4732,532,11.24
Facebook,2017-04-04,4423,527,11.91
Facebook,2017-04-05,4653,630,13.54
Facebook,2017-04-06,4227,566,13.39
Facebook,2017-04-07,4767,546,11.45
Facebook,2017-04-08,4491,490,10.91
Facebook,2017-04-09,4708,557,11.83
Facebook,2017-04-10,4415,618,14.0
Facebook,2017-04-11,4949,656,13.26
Facebook,2017-04-12,4061,484,11.92
Facebook,2017-04-13,4857,600,12.35
Facebook,2017-04-14,5078,610,12.01
Facebook,2017-04-15,4367,525,12.02
Facebook,2017-04-16,4384,502,11.45
Facebook,2017-04-17,4361,481,11.03
Facebook,2017-04-18,3851,488,12.67
Facebook,2017-04-19,4257,558,13.11
Facebook,2017-04-20,4309,505,11.72
Facebook,2017-04-21,4511,476,10.55
Facebook,2017-04-22,4327,551,12.73
Facebook,2017-04-23,4974,476,9.57
Facebook,2017-04-24,4397,546,12.42
Facebook,2017-04-25,4330,485,11.2
Facebook,2017-04-26,4079,460,11.28
Facebook,2017-04-27,4935,619,12.54
Facebook,2017-04-28,4541,502,11.05
Facebook,2017-04-29,4948,671,13.56
Facebook,2017-04-30,4355,565,12.97
Facebook,2017-05-01,4406,494,11.21
Facebook,2017-05-02,4379,490,11.19
Facebook,2017-05-03,3996,477,11.94
Facebook,2017-05-04,4886,606,12.4
Facebook,2017-05-05,4749,568,11.96
Facebook,2017-05-06,4681,528,11.28
Facebook,2017-05-07,4695,436,9.29
Facebook,2017-05-08,4118,437,10.61
Facebook,2017-05-09,4380,503,11.48
Facebook,2017-05-10,4401,532,12.09
Facebook,2017-05-11,4645,601,12.94
Facebook,2017-05-12,4241,502,11.84
Facebook,2017-05-13,4248,546,12.85
Facebook,2017-05-14,3977,456,11.47
Facebook,2017-05-15,4506,680,15.09
Facebook,2017-05-16,4677,603,12.89
Facebook,2017-05-17,4272,569,13.32
Facebook,2017-05-18,4340,539,12.42
Facebook,2017-05-19,4155,429,10.32
Facebook,2017-05-20,4644,462,9.95
Facebook,2017-05-21,4384,508,11.59
Facebook,2017-05-22,4108,455,11.08
Facebook,2017-05-23,4526,567,12.53
Facebook,2017-05-24,4392,472,10.75
Facebook,2017-05-25,4273,609,14.25
Facebook,2017-05-26,4365,445,10.19
Facebook,2017-05-27,4161,474,11.39
Facebook,2017-05-28,4099,437,10.66
Facebook,2017-05-29,4474,534,11.94
Facebook,2017-05-30,4084,363,8.89
Facebook,2017-05-31,5088,463,9.1
Facebook,2017-06-01,4579,445,9.72
Facebook,2017-06-02,4167,368,8.83
Facebook,2017-06-03,4814,374,7.77
Facebook,2017-06-04,4095,350,8.55
Facebook,2017-06-05,3660,277,7.57
Facebook,2017-06-06,4489,360,8.02
Facebook,2017-06-07,3760,322,8.56
Facebook,2017-06-08,4024,387,9.62
Facebook,2017-06-09,4024,342,8.5
Facebook,2017-06-10,4303,431,10.02
Facebook,2017-06-11,4289,473,11.03
Facebook,2017-06-12,4554,399,8.76
Facebook,2017-06-13,4197,389,9.27
Facebook,2017-06-14,4122,336,8.15
Facebook,2017-06-15,4227,352,8.33
Facebook,2017-06-16,4398,384,8.73
Facebook,2017-06-17,4644,443,9.54
Facebook,2017-06-18,4100,362,8.83
Facebook,2017-06-19,4309,362,8.4
Facebook,2017-06-20,3915,395,10.09
Facebook,2017-06-21,4920,476,9.67
Facebook,2017-06-22,4525,406,8.97
Facebook,2017-06-23,3697,344,9.3
Facebook,2017-06-24,4598,405,8.81
Facebook,2017-06-25,4758,395,8.3
Facebook,2017-06-26,4429,373,8.42
Facebook,2017-06-27,4461,362,8.11
Facebook,2017-06-28,4389,350,7.97
Facebook,2017-06-29,4759,344,7.23
Facebook,2017-06-30,4015,374,9.32
Facebook,2017-07-01,4849,410,8.46
Facebook,2017-07-02,4078,353,8.66
Facebook,2017-07-03,4332,353,8.15
Facebook,2017-07-04,4639,362,7.8
Facebook,2017-07-05,4456,388,8.71
Facebook,2017-07-06,4548,360,7.92
Facebook,2017-07-07,4193,304,7.25
Facebook,2017-07-08,4276,315,7.37
Facebook,2017-07-09,3921,340,8.67
Facebook,2017-07-10,4751,432,9.09
Facebook,2017-07-11,4392,366,8.33
Facebook,2017-07-12,4187,348,8.31
Facebook,2017-07-13,4302,350,8.14
Facebook,2017-07-14,3943,366,9.28
Facebook,2017-07-15,4278,316,7.39
Facebook,2017-07-16,5147,535,10.39
Facebook,2017-07-17,4342,376,8.66
Facebook,2017-07-18,4233,371,8.76
Facebook,2017-07-19,4124,348,8.44
Facebook,2017-07-20,4185,337,8.05
Facebook,2017-07-21,3938,381,9.67
Facebook,2017-07-22,4964,513,10.33
Facebook,2017-07-23,4286,419,9.78
Facebook,2017-07-24,5228,539,10.31
Facebook,2017-07-25,4468,426,9.53
Facebook,2017-07-26,4529,435,9.6
Facebook,2017-07-27,4887,355,7.26
Facebook,2017-07-28,3838,283,7.37
Facebook,2017-07-29,4839,479,9.9
Facebook,2017-07-30,4157,368,8.85
Facebook,2017-07-31,3636,342,9.41
Facebook,2017-08-01,3980,364,9.15
Facebook,2017-08-02,4450,383,8.61
Facebook,2017-08-03,3987,361,9.05
Facebook,2017-08-04,4628,348,7.52
Facebook,2017-08-05,4419,403,9.12
Facebook,2017-08-06,4475,417,9.32
Facebook,2017-08-07,5108,513,10.04
Facebook,2017-08-08,4477,362,8.09
Facebook,2017-08-09,4376,307,7.02
Facebook,2017-08-10,4685,421,8.99
Facebook,2017-08-11,4245,442,10.41
Facebook,2017-08-12,4217,388,9.2
Facebook,2017-08-13,4440,317,7.14
Facebook,2017-08-14,4439,409,9.21
Facebook,2017-08-15,3939,303,7.69
Facebook,2017-08-16,4558,417,9.15
Facebook,2017-08-17,3542,345,9.74
Facebook,2017-08-18,4112,339,8.24
Facebook,2017-08-19,4861,410,8.43
Facebook,2017-08-20,4681,415,8.87
Facebook,2017-08-21,4144,436,10.52
Facebook,2017-08-22,4557,400,8.78
Facebook,2017-08-23,4947,421,8.51
Facebook,2017-08-24,4397,386,8.78
Facebook,2017-08-25,4176,371,8.88
Facebook,2017-08-26,4297,386,8.98
Facebook,2017-08-27,4747,363,7.65
Facebook,2017-08-28,4865,435,8.94
Facebook,2017-08-29,4366,423,9.69
Facebook,2017-08-30,4669,359,7.69
Facebook,2017-08-31,3787,367,9.69
Facebook,2017-09-01,4685,392,8.37
Facebook,2017-09-02,4681,447,9.55
Facebook,2017-09-03,4534,388,8.56
Facebook,2017-09-04,4577,426,9.31
Facebook,2017-09-05,4679,426,9.1
Facebook,2017-09-06,4121,389,9.44
Facebook,2017-09-07,4787,428,8.94
Facebook,2017-09-08,4094,366,8.94
Facebook,2017-09-09,4354,404,9.28
Facebook,2017-09-10,4579,420,9.17
Facebook,2017-09-11,3937,396,10.06
Facebook,2017-09-12,3967,305,7.69
Facebook,2017-09-13,4883,469,9.6
Facebook,2017-09-14,4126,353,8.56
Facebook,2017-09-15,4547,380,8.36
Facebook,2017-09-16,4141,397,9.59
Facebook,2017-09-17,4082,343,8.4
Facebook,2017-09-18,4216,379,8.99
Facebook,2017-09-19,5004,434,8.67
Facebook,2017-09-20,3755,311,8.28
Facebook,2017-09-21,4488,460,10.25
Facebook,2017-09-22,4276,473,11.06
Facebook,2017-09-23,4879,422,8.65
Facebook,2017-09-24,4447,409,9.2
Facebook,2017-09-25,4178,302,7.23
Facebook,2017-09-26,4760,468,9.83
Facebook,2017-09-27,4589,460,10.02
Facebook,2017-09-28,3785,404,10.67
Facebook,2017-09-29,5115,415,8.11
Facebook,2017-09-30,4456,437,9.81
Facebook,2017-10-01,4506,416,9.23
Facebook,2017-10-02,4658,400,8.59
Facebook,2017-10-03,4514,479,10.61
Facebook,2017-10-04,4841,428,8.84
Facebook,2017-10-05,4353,400,9.19
Facebook,2017-10-06,4478,341,7.62
Facebook,2017-10-07,4031,349,8.66
Facebook,2017-10-08,3989,388,9.73
Facebook,2017-10-09,4848,371,7.65
Facebook,2017-10-10,4953,448,9.05
Facebook,2017-10-11,4342,376,8.66
Facebook,2017-10-12,4886,433,8.86
Facebook,2017-10-13,4601,445,9.67
Facebook,2017-10-14,4296,317,7.38
Facebook,2017-10-15,4959,536,10.81
Facebook,2017-10-16,4375,433,9.9
Facebook,2017-10-17,4542,391,8.61
Facebook,2017-10-18,4126,331,8.02
Facebook,2017-10-19,4528,459,10.14
Facebook,2017-10-20,4167,371,8.9
Facebook,2017-10-21,3837,326,8.5
Facebook,2017-10-22,5007,444,8.87
Facebook,2017-10-23,4356,340,7.81
Facebook,2017-10-24,4524,372,8.22
Facebook,2017-10-25,4639,417,8.99
Facebook,2017-10-26,4960,394,7.94
Facebook,2017-10-27,4711,451,9.57
Facebook,2017-10-28,4596,362,7.88
Facebook,2017-10-29,4861,470,9.67
Facebook,2017-10-30,4512,295,6.54
Facebook,2017-10-31,4043,294,7.27
Facebook,2017-11-01,3936,365,9.27
Facebook,2017-11-02,4592,416,9.06
Facebook,2017-11-03,4586,491,10.71
Facebook,2017-11-04,4307,391,9.08
Facebook,2017-11-05,4752,456,9.6
Facebook,2017-11-06,4300,366,8.51
Facebook,2017-11-07,4497,379,8.43
Facebook,2017-11-08,4458,383,8.59
Facebook,2017-11-09,4191,378,9.02
Facebook,2017-11-10,4544,412,9.07
Facebook,2017-11-11,4771,466,9.77
Facebook,2017-11-12,4077,378,9.27
Facebook,2017-11-13,3856,378,9.8
Facebook,2017-11-14,4282,360,8.41
Facebook,2017-11-15,4663,485,10.4
Facebook,2017-11-16,4276,380,8.89
Facebook,2017-11-17,4615,383,8.3
Facebook,2017-11-18,4336,372,8.58
Facebook,2017-11-19,4632,360,7.77
Facebook,2017-11-20,4594,446,9.71
Facebook,2017-11-21,4477,425,9.49
Facebook,2017-11-22,3790,340,8.97
Facebook,2017-11-23,4676,431,9.22
Facebook,2017-11-24,4744,367,7.74
Facebook,2017-11-25,4828,415,8.6
Facebook,2017-11-26,4020,327,8.13
Facebook,2017-11-27,4236,391,9.23
Facebook,2017-11-28,4321,362,8.38
Facebook,2017-11-29,4340,400,9.22
Facebook,2017-11-30,4465,440,9.85
Facebook,2017-12-01,4736,440,9.29
Facebook,2017-12-02,4271,422,9.88
Facebook,2017-12-03,4970,473,9.52
Facebook,2017-12-04,4745,486,10.24
Facebook,2017-12-05,4509,396,8.78
Facebook,2017-12-06,4217,335,7.94
Facebook,2017-12-07,4413,460,10.42
Facebook,2017-12-08,4343,456,10.5
Facebook,2017-12-09,4542,351,7.73
Facebook,2017-12-10,4655,404,8.68
Facebook,2017-12-11,4638,337,7.27
Facebook,2017-12-12,3962,307,7.75
Facebook,2017-12-13,4199,363,8.64
Facebook,2017-12-14,4789,442,9.23
Facebook,2017-12-15,4273,383,8.96
Facebook,2017-12-16,4671,396,8.48
Facebook,2017-12-17,4412,444,10.06
Facebook,2017-12-18,4336,390,8.99
Facebook,2017-12-19,4571,378,8.27
Facebook,2017-12-20,4156,378,9.1
Facebook,2017-12-21,4466,410,9.18
Facebook,2017-12-22,4052,332,8.19
Facebook,2017-12-23,5061,476,9.41
Facebook,2017-12-24,4084,390,9.55
Facebook,2017-12-25,3921,353,9.0
Facebook,2017-12-26,5182,431,8.32
Facebook,2017-12-27,3950,418,10.58
Facebook,2017-12-28,4625,404,8.74
Facebook,2017-12-29,5097,378,7.42
Facebook,2017-12-30,2154,535,24.84
Facebook,2017-12-31,1972,498,25.25
Instagram,2017-01-01,4065,473,11.64
Instagram,2017-01-02,4468,432,9.67
Instagram,2017-01-03,4199,650,15.48
Instagram,2017-01-04,4521,523,11.57
Instagram,2017-01-05,4128,467,11.31
Instagram,2017-01-06,3870,470,12.14
Instagram,2017-01-07,4721,550,11.65
Instagram,2017-01-08,4088,377,9.22
Instagram,2017-01-09,4704,739,15.71
Instagram,2017-01-10,4438,427,9.62
Instagram,2017-01-11,4007,437,10.91
Instagram,2017-01-12,4095,514,12.55
Instagram,2017-01-13,4570,569,12.45
Instagram,2017-01-14,4348,448,10.3
Instagram,2017-01-15,4597,647,14.07
Instagram,2017-01-16,4369,550,12.59
Instagram,2017-01-17,4246,581,13.68
Instagram,2017-01-18,4560,627,13.75
Instagram,2017-01-19,4634,533,11.5
Instagram,2017-01-20,4271,551,12.9
Instagram,2017-01-21,4194,594,14.16
Instagram,2017-01-22,4562,538,11.79
Instagram,2017-01-23,4200,609,14.5
Instagram,2017-01-24,4347,535,12.31
Instagram,2017-01-25,4808,622,12.94
Instagram,2017-01-26,4573,639,13.97
Instagram,2017-01-27,4480,498,11.12
Instagram,2017-01-28,4957,539,10.87
Instagram,2017-01-29,4126,405,9.82
Instagram,2017-01-30,4436,623,14.04
Instagram,2017-01-31,4719,568,12.04
Instagram,2017-02-01,4328,511,11.81
Instagram,2017-02-02,4696,683,14.54
Instagram,2017-02-03,4847,736,15.18
Instagram,2017-02-04,4505,491,10.9
Instagram,2017-02-05,3898,442,11.34
Instagram,2017-02-06,4853,610,12.57
Instagram,2017-02-07,4463,569,12.75
Instagram,2017-02-08,4367,509,11.66
Instagram,2017-02-09,4405,514,11.67
Instagram,2017-02-10,3552,384,10.81
Instagram,2017-02-11,4639,544,11.73
Instagram,2017-02-12,4609,499,10.83
Instagram,2017-02-13,4665,500,10.72
Instagram,2017-02-14,4632,511,11.03
Instagram,2017-02-15,5123,593,11.58
Instagram,2017-02-16,4476,559,12.49
Instagram,2017-02-17,4726,708,14.98
Instagram,2017-02-18,4550,511,11.23
Instagram,2017-02-19,4497,602,13.39
Instagram,2017-02-20,4517,547,12.11
Instagram,2017-02-21,4997,634,12.69
Instagram,2017-02-22,5243,661,12.61
Instagram,2017-02-23,4238,483,11.4
Instagram,2017-02-24,4447,515,11.58
Instagram,2017-02-25,4445,550,12.37
Instagram,2017-02-26,4618,606,13.12
Instagram,2017-02-27,4600,573,12.46
Instagram,2017-02-28,4244,498,11.73
Instagram,2017-03-01,4182,447,10.69
Instagram,2017-03-02,4759,561,11.79
Instagram,2017-03-03,4427,500,11.29
Instagram,2017-03-04,4850,510,10.52
Instagram,2017-03-05,3889,484,12.45
Instagram,2017-03-06,4747,548,11.54
Instagram,2017-03-07,4476,581,12.98
Instagram,2017-03-08,5020,619,12.33
Instagram,2017-03-09,4117,521,12.65
Instagram,2017-03-10,4860,627,12.9
Instagram,2017-03-11,4143,516,12.45
Instagram,2017-03-12,4296,529,12.31
Instagram,2017-03-13,3873,451,11.64
Instagram,2017-03-14,4089,510,12.47
Instagram,2017-03-15,4685,614,13.11
Instagram,2017-03-16,4594,579,12.6
Instagram,2017-03-17,4045,465,11.5
Instagram,2017-03-18,4597,512,11.14
Instagram,2017-03-19,4792,631,13.17
Instagram,2017-03-20,4229,474,11.21
Instagram,2017-03-21,4699,524,11.15
Instagram,2017-03-22,4773,612,12.82
Instagram,2017-03-23,4816,731,15.18
Instagram,2017-03-24,4923,705,14.32
Instagram,2017-03-25,4473,530,11.85
Instagram,2017-03-26,5384,673,12.5
Instagram,2017-03-27,4582,538,11.74
Instagram,2017-03-28,4499,544,12.09
Instagram,2017-03-29,4936,578,11.71
Instagram,2017-03-30,4384,548,12.5
Instagram,2017-03-31,4087,486,11.89
Instagram,2017-04-01,4075,439,10.77
Instagram,2017-04-02,4131,511,12.37
Instagram,2017-04-03,4593,519,11.3
Instagram,2017-04-04,4228,535,12.65
Instagram,2017-04-05,3924,420,10.7
Instagram,2017-04-06,4367,590,13.51
Instagram,2017-04-07,4478,596,13.31
Instagram,2017-04-08,4110,488,11.87
Instagram,2017-04-09,4763,642,13.48
Instagram,2017-04-10,4501,580,12.89
Instagram,2017-04-11,4449,600,13.49
Instagram,2017-04-12,4681,606,12.95
Instagram,2017-04-13,3977,463,11.64
Instagram,2017-04-14,5079,629,12.38
Instagram,2017-04-15,3888,454,11.68
Instagram,2017-04-16,4601,511,11.11
Instagram,2017-04-17,4211,417,9.9
Instagram,2017-04-18,4091,490,11.98
Instagram,2017-04-19,4293,455,10.6
Instagram,2017-04-20,3843,482,12.54
Instagram,2017-04-21,4384,516,11.77
Instagram,2017-04-22,3851,365,9.48
Instagram,2017-04-23,3869,412,10.65
Instagram,2017-04-24,4141,513,12.39
Instagram,2017-04-25,4677,551,11.78
Instagram,2017-04-26,4391,526,11.98
Instagram,2017-04-27,4287,471,10.99
Instagram,2017-04-28,4346,637,14.66
Instagram,2017-04-29,4577,402,8.78
Instagram,2017-04-30,4060,502,12.36
Instagram,2017-05-01,3866,446,11.54
Instagram,2017-05-02,5099,629,12.34
Instagram,2017-05-03,4076,535,13.13
Instagram,2017-05-04,4707,536,11.39
Instagram,2017-05-05,3895,472,12.12
Instagram,2017-05-06,4420,509,11.52
Instagram,2017-05-07,4273,526,12.31
Instagram,2017-05-08,4773,532,11.15
Instagram,2017-05-09,4350,512,11.77
Instagram,2017-05-10,4226,531,12.57
Instagram,2017-05-11,4577,520,11.36
Instagram,2017-05-12,4598,565,12.29
Instagram,2017-05-13,3971,463,11.66
Instagram,2017-05-14,4569,552,12.08
Instagram,2017-05-15,3962,453,11.43
Instagram,2017-05-16,4335,556,12.83
Instagram,2017-05-17,4877,490,10.05
Instagram,2017-05-18,4651,535,11.5
Instagram,2017-05-19,4098,536,13.08
Instagram,2017-05-20,4411,514,11.65
Instagram,2017-05-21,5163,645,12.49
Instagram,2017-05-22,4407,503,11.41
Instagram,2017-05-23,4386,501,11.42
Instagram,2017-05-24,4227,557,13.18
Instagram,2017-05-25,4616,597,12.93
Instagram,2017-05-26,4511,538,11.93
Instagram,2017-05-27,3581,430,12.01
Instagram,2017-05-28,4795,621,12.95
Instagram,2017-05-29,4568,577,12.63
Instagram,2017-05-30,4457,456,10.23
Instagram,2017-05-31,4416,435,9.85
Instagram,2017-06-01,4390,384,8.75
Instagram,2017-06-02,4461,453,10.15
Instagram,2017-06-03,4850,452,9.32
Instagram,2017-06-04,4244,409,9.64
Instagram,2017-06-05,4565,489,10.71
Instagram,2017-06-06,4223,399,9.45
Instagram,2017-06-07,4946,519,10.49
Instagram,2017-06-08,4518,539,11.93
Instagram,2017-06-09,4018,342,8.51
Instagram,2017-06-10,4456,385,8.64
Instagram,2017-06-11,4249,464,10.92
Instagram,2017-06-12,4648,479,10.31
Instagram,2017-06-13,4610,439,9.52
Instagram,2017-06-14,4592,421,9.17
Instagram,2017-06-15,5091,525,10.31
Instagram,2017-06-16,4243,350,8.25
Instagram,2017-06-17,4557,400,8.78
Instagram,2017-06-18,3761,297,7.9
Instagram,2017-06-19,4586,364,7.94
Instagram,2017-06-20,4521,426,9.42
Instagram,2017-06-21,4608,465,10.09
Instagram,2017-06-22,4639,441,9.51
Instagram,2017-06-23,3890,364,9.36
Instagram,2017-06-24,4339,363,8.37
Instagram,2017-06-25,4173,357,8.55
Instagram,2017-06-26,4343,367,8.45
Instagram,2017-06-27,4553,454,9.97
Instagram,2017-06-28,5083,466,9.17
Instagram,2017-06-29,4317,392,9.08
Instagram,2017-06-30,4950,483,9.76
Instagram,2017-07-01,4471,386,8.63
Instagram,2017-07-02,5404,523,9.68
Instagram,2017-07-03,4517,401,8.88
Instagram,2017-07-04,3896,303,7.78
Instagram,2017-07-05,4761,403,8.46
Instagram,2017-07-06,4657,425,9.13
Instagram,2017-07-07,4021,279,6.94
Instagram,2017-07-08,4588,459,10.0
Instagram,2017-07-09,5362,457,8.52
Instagram,2017-07-10,4923,484,9.83
Instagram,2017-07-11,5132,476,9.28
Instagram,2017-07-12,5360,538,10.04
Instagram,2017-07-13,4800,419,8.73
Instagram,2017-07-14,4407,375,8.51
Instagram,2017-07-15,4397,395,8.98
Instagram,2017-07-16,4412,354,8.02
Instagram,2017-07-17,4728,418,8.84
Instagram,2017-07-18,4872,410,8.42
Instagram,2017-07-19,4671,345,7.39
Instagram,2017-07-20,4308,381,8.84
Instagram,2017-07-21,5118,464,9.07
Instagram,2017-07-22,5121,515,10.06
Instagram,2017-07-23,4813,506,10.51
Instagram,2017-07-24,5062,410,8.1
Instagram,2017-07-25,4347,395,9.09
Instagram,2017-07-26,4487,384,8.56
Instagram,2017-07-27,4663,443,9.5
Instagram,2017-07-28,5074,378,7.45
Instagram,2017-07-29,4181,337,8.06
Instagram,2017-07-30,3959,344,8.69
Instagram,2017-07-31,4483,416,9.28
Instagram,2017-08-01,4441,409,9.21
Instagram,2017-08-02,4189,385,9.19
Instagram,2017-08-03,4188,376,8.98
Instagram,2017-08-04,4512,426,9.44
Instagram,2017-08-05,3658,386,10.55
Instagram,2017-08-06,4920,442,8.98
Instagram,2017-08-07,4219,398,9.43
Instagram,2017-08-08,4811,379,7.88
Instagram,2017-08-09,4589,473,10.31
Instagram,2017-08-10,4257,381,8.95
Instagram,2017-08-11,4642,397,8.55
Instagram,2017-08-12,4801,393,8.19
Instagram,2017-08-13,4778,459,9.61
Instagram,2017-08-14,4793,439,9.16
Instagram,2017-08-15,3645,306,8.4
Instagram,2017-08-16,4905,541,11.03
Instagram,2017-08-17,5301,547,10.32
Instagram,2017-08-18,4482,408,9.1
Instagram,2017-08-19,4380,350,7.99
Instagram,2017-08-20,4017,351,8.74
Instagram,2017-08-21,4871,432,8.87
Instagram,2017-08-22,4648,429,9.23
Instagram,2017-08-23,4560,376,8.25
Instagram,2017-08-24,4244,412,9.71
Instagram,2017-08-25,4771,479,10.04
Instagram,2017-08-26,4491,470,10.47
Instagram,2017-08-27,4929,464,9.41
Instagram,2017-08-28,4359,409,9.38
Instagram,2017-08-29,4280,375,8.76
Instagram,2017-08-30,4577,459,10.03
Instagram,2017-08-31,3877,336,8.67
Instagram,2017-09-01,4982,433,8.69
Instagram,2017-09-02,4299,415,9.65
Instagram,2017-09-03,4897,456,9.31
Instagram,2017-09-04,4174,345,8.27
Instagram,2017-09-05,4422,447,10.11
Instagram,2017-09-06,4583,381,8.31
Instagram,2017-09-07,4305,420,9.76
Instagram,2017-09-08,4362,401,9.19
Instagram,2017-09-09,4364,413,9.46
Instagram,2017-09-10,4955,426,8.6
Instagram,2017-09-11,3714,347,9.34
Instagram,2017-09-12,4303,366,8.51
Instagram,2017-09-13,4353,405,9.3
Instagram,2017-09-14,4678,396,8.47
Instagram,2017-09-15,4525,419,9.26
Instagram,2017-09-16,3992,343,8.59
Instagram,2017-09-17,4300,381,8.86
Instagram,2017-09-18,4926,438,8.89
Instagram,2017-09-19,4206,348,8.27
Instagram,2017-09-20,3906,325,8.32
Instagram,2017-09-21,4666,443,9.49
Instagram,2017-09-22,4826,448,9.28
Instagram,2017-09-23,4635,384,8.28
Instagram,2017-09-24,4240,351,8.28
Instagram,2017-09-25,5320,562,10.56
Instagram,2017-09-26,4448,442,9.94
Instagram,2017-09-27,4403,460,10.45
Instagram,2017-09-28,4117,457,11.1
Instagram,2017-09-29,4421,362,8.19
Instagram,2017-09-30,3971,386,9.72
Instagram,2017-10-01,4324,365,8.44
Instagram,2017-10-02,4442,419,9.43
Instagram,2017-10-03,5038,441,8.75
Instagram,2017-10-04,4121,350,8.49
Instagram,2017-10-05,4006,395,9.86
Instagram,2017-10-06,3636,346,9.52
Instagram,2017-10-07,4672,410,8.78
Instagram,2017-10-08,4129,426,10.32
Instagram,2017-10-09,4711,465,9.87
Instagram,2017-10-10,4027,342,8.49
Instagram,2017-10-11,4054,385,9.5
Instagram,2017-10-12,4404,453,10.29
Instagram,2017-10-13,4494,421,9.37
Instagram,2017-10-14,4493,389,8.66
Instagram,2017-10-15,4781,448,9.37
Instagram,2017-10-16,4479,433,9.67
Instagram,2017-10-17,4227,408,9.65
Instagram,2017-10-18,4750,521,10.97
Instagram,2017-10-19,4052,399,9.85
Instagram,2017-10-20,4013,361,9.0
Instagram,2017-10-21,4436,461,10.39
Instagram,2017-10-22,4618,454,9.83
Instagram,2017-10-23,4473,353,7.89
Instagram,2017-10-24,4630,433,9.35
Instagram,2017-10-25,4444,345,7.76
Instagram,2017-10-26,4657,374,8.03
Instagram,2017-10-27,4379,344,7.86
Instagram,2017-10-28,4328,361,8.34
Instagram,2017-10-29,4408,398,9.03
Instagram,2017-10-30,3920,325,8.29
Instagram,2017-10-31,4959,427,8.61
Instagram,2017-11-01,4425,432,9.76
Instagram,2017-11-02,4260,369,8.66
Instagram,2017-11-03,4705,401,8.52
Instagram,2017-11-04,3928,381,9.7
Instagram,2017-11-05,4269,414,9.7
Instagram,2017-11-06,4518,394,8.72
Instagram,2017-11-07,4378,469,10.71
Instagram,2017-11-08,4291,337,7.85
Instagram,2017-11-09,4532,423,9.33
Instagram,2017-11-10,4158,386,9.28
Instagram,2017-11-11,4575,439,9.6
Instagram,2017-11-12,4729,401,8.48
Instagram,2017-11-13,4597,461,10.03
Instagram,2017-11-14,4415,515,11.66
Instagram,2017-11-15,4354,369,8.47
Instagram,2017-11-16,3652,315,8.63
Instagram,2017-11-17,4199,371,8.84
Instagram,2017-11-18,4938,509,10.31
Instagram,2017-11-19,5008,471,9.4
Instagram,2017-11-20,4261,354,8.31
Instagram,2017-11-21,4779,431,9.02
Instagram,2017-11-22,4453,392,8.8
Instagram,2017-11-23,4022,412,10.24
Instagram,2017-11-24,4344,462,10.64
Instagram,2017-11-25,4256,395,9.28
Instagram,2017-11-26,4164,348,8.36
Instagram,2017-11-27,4667,436,9.34
Instagram,2017-11-28,4441,388,8.74
Instagram,2017-11-29,4417,346,7.83
Instagram,2017-11-30,3997,356,8.91
Instagram,2017-12-01,4898,447,9.13
Instagram,2017-12-02,4490,378,8.42
Instagram,2017-12-03,4007,352,8.78
Instagram,2017-12-04,4183,396,9.47
Instagram,2017-12-05,4107,285,6.94
Instagram,2017-12-06,4851,449,9.26
Instagram,2017-12-07,4906,495,10.09
Instagram,2017-12-08,4369,405,9.27
Instagram,2017-12-09,4011,393,9.8
Instagram,2017-12-10,4882,384,7.87
Instagram,2017-12-11,4340,380,8.76
Instagram,2017-12-12,4514,399,8.84
Instagram,2017-12-13,4805,534,11.11
Instagram,2017-12-14,4400,412,9.36
Instagram,2017-12-15,4856,436,8.98
Instagram,2017-12-16,5292,521,9.85
Instagram,2017-12-17,3995,356,8.91
Instagram,2017-12-18,4366,354,8.11
Instagram,2017-12-19,4333,390,9.0
Instagram,2017-12-20,4628,347,7.5
Instagram,2017-12-21,4223,420,9.95
Instagram,2017-12-22,4851,496,10.22
Instagram,2017-12-23,4231,340,8.04
Instagram,2017-12-24,4588,396,8.63
Instagram,2017-12-25,4868,370,7.6
Instagram,2017-12-26,4976,474,9.53
Instagram,2017-12-27,4681,397,8.48
Instagram,2017-12-28,4098,390,9.52
Instagram,2017-12-29,4624,420,9.08
Instagram,2017-12-30,2155,473,21.95
Instagram,2017-12-31,1942,391,20.13
Twitter,2017-01-01,4525,590,13.04
Twitter,2017-01-02,4579,519,11.33
Twitter,2017-01-03,4024,495,12.3
Twitter,2017-01-04,4517,633,14.01
Twitter,2017-01-05,4038,493,12.21
Twitter,2017-01-06,4067,448,11.02
Twitter,2017-01-07,3780,512,13.54
Twitter,2017-01-08,4421,497,11.24
Twitter,2017-01-09,4332,498,11.5
Twitter,2017-01-10,4993,535,10.72
Twitter,2017-01-11,3996,516,12.91
Twitter,2017-01-12,4740,535,11.29
Twitter,2017-01-13,5414,637,11.77
Twitter,2017-01-14,4710,467,9.92
Twitter,2017-01-15,4087,473,11.57
Twitter,2017-01-16,4708,592,12.57
Twitter,2017-01-17,4358,548,12.57
Twitter,2017-01-18,4300,545,12.67
Twitter,2017-01-19,4391,533,12.14
Twitter,2017-01-20,4428,437,9.87
Twitter,2017-01-21,4525,521,11.51
Twitter,2017-01-22,4529,497,10.97
Twitter,2017-01-23,4634,584,12.6
Twitter,2017-01-24,5340,645,12.08
Twitter,2017-01-25,4511,482,10.68
Twitter,2017-01-26,4667,527,11.29
Twitter,2017-01-27,4202,447,10.64
Twitter,2017-01-28,4562,526,11.53
Twitter,2017-01-29,3846,431,11.21
Twitter,2017-01-30,4358,548,12.57
Twitter,2017-01-31,4605,524,11.38
Twitter,2017-02-01,4281,513,11.98
Twitter,2017-02-02,3830,434,11.33
Twitter,2017-02-03,4149,491,11.83
Twitter,2017-02-04,4054,418,10.31
Twitter,2017-02-05,4852,544,11.21
Twitter,2017-02-06,4817,624,12.95
Twitter,2017-02-07,5149,625,12.14
Twitter,2017-02-08,5055,583,11.53
Twitter,2017-02-09,4841,509,10.51
Twitter,2017-02-10,3865,404,10.45
Twitter,2017-02-11,4488,497,11.07
Twitter,2017-02-12,4189,500,11.94
Twitter,2017-02-13,5267,651,12.36
Twitter,2017-02-14,5008,619,12.36
Twitter,2017-02-15,3934,439,11.16
Twitter,2017-02-16,4372,574,13.13
Twitter,2017-02-17,5121,652,12.73
Twitter,2017-02-18,4814,603,12.53
Twitter,2017-02-19,4875,662,13.58
Twitter,2017-02-20,4721,465,9.85
Twitter,2017-02-21,4290,392,9.14
Twitter,2017-02-22,4641,488,10.51
Twitter,2017-02-23,4515,592,13.11
Twitter,2017-02-24,4556,575,12.62
Twitter,2017-02-25,4559,556,12.2
Twitter,2017-02-26,4418,539,12.2
Twitter,2017-02-27,3817,454,11.89
Twitter,2017-02-28,4513,546,12.1
Twitter,2017-03-01,4132,508,12.29
Twitter,2017-03-02,4625,554,11.98
Twitter,2017-03-03,5061,707,13.97
Twitter,2017-03-04,4518,497,11.0
Twitter,2017-03-05,4512,528,11.7
Twitter,2017-03-06,4278,446,10.43
Twitter,2017-03-07,4502,503,11.17
Twitter,2017-03-08,4450,536,12.04
Twitter,2017-03-09,4442,535,12.04
Twitter,2017-03-10,5120,674,13.16
Twitter,2017-03-11,4333,537,12.39
Twitter,2017-03-12,4447,538,12.1
Twitter,2017-03-13,4500,480,10.67
Twitter,2017-03-14,4744,653,13.76
Twitter,2017-03-15,4455,490,11.0
Twitter,2017-03-16,5058,580,11.47
Twitter,2017-03-17,4036,453,11.22
Twitter,2017-03-18,4391,520,11.84
Twitter,2017-03-19,4603,570,12.38
Twitter,2017-03-20,4167,531,12.74
Twitter,2017-03-21,5054,609,12.05
Twitter,2017-03-22,4081,468,11.47
Twitter,2017-03-23,4597,457,9.94
Twitter,2017-03-24,4429,476,10.75
Twitter,2017-03-25,4497,513,11.41
Twitter,2017-03-26,4921,645,13.11
Twitter,2017-03-27,4776,514,10.76
Twitter,2017-03-28,5102,670,13.13
Twitter,2017-03-29,4196,397,9.46
Twitter,2017-03-30,4740,497,10.49
Twitter,2017-03-31,4709,547,11.62
Twitter,2017-04-01,4398,521,11.85
Twitter,2017-04-02,5070,622,12.27
Twitter,2017-04-03,4455,505,11.34
Twitter,2017-04-04,4267,444,10.41
Twitter,2017-04-05,3867,402,10.4
Twitter,2017-04-06,4772,613,12.85
Twitter,2017-04-07,5090,699,13.73
Twitter,2017-04-08,4423,488,11.03
Twitter,2017-04-09,4298,489,11.38
Twitter,2017-04-10,4555,485,10.65
Twitter,2017-04-11,3828,421,11.0
Twitter,2017-04-12,4864,604,12.42
Twitter,2017-04-13,4894,552,11.28
Twitter,2017-04-14,4942,630,12.75
Twitter,2017-04-15,4400,514,11.68
Twitter,2017-04-16,4254,468,11.0
Twitter,2017-04-17,4696,587,12.5
Twitter,2017-04-18,4743,523,11.03
Twitter,2017-04-19,4605,623,13.53
Twitter,2017-04-20,4545,561,12.34
Twitter,2017-04-21,4573,562,12.29
Twitter,2017-04-22,4474,440,9.83
Twitter,2017-04-23,4019,472,11.74
Twitter,2017-04-24,4428,534,12.06
Twitter,2017-04-25,4830,540,11.18
Twitter,2017-04-26,4308,577,13.39
Twitter,2017-04-27,4715,599,12.7
Twitter,2017-04-28,4624,541,11.7
Twitter,2017-04-29,4638,558,12.03
Twitter,2017-04-30,4509,495,10.98
Twitter,2017-05-01,4702,609,12.95
Twitter,2017-05-02,4503,539,11.97
Twitter,2017-05-03,4515,488,10.81
Twitter,2017-05-04,4899,662,13.51
Twitter,2017-05-05,4518,589,13.04
Twitter,2017-05-06,4683,565,12.06
Twitter,2017-05-07,4261,468,10.98
Twitter,2017-05-08,4549,423,9.3
Twitter,2017-05-09,4529,530,11.7
Twitter,2017-05-10,3939,437,11.09
Twitter,2017-05-11,4605,725,15.74
Twitter,2017-05-12,4330,632,14.6
Twitter,2017-05-13,4366,575,13.17
Twitter,2017-05-14,4461,488,10.94
Twitter,2017-05-15,4498,562,12.49
Twitter,2017-05-16,4120,430,10.44
Twitter,2017-05-17,4104,471,11.48
Twitter,2017-05-18,4870,558,11.46
Twitter,2017-05-19,4764,642,13.48
Twitter,2017-05-20,4377,486,11.1
Twitter,2017-05-21,4917,660,13.42
Twitter,2017-05-22,4125,575,13.94
Twitter,2017-05-23,4328,517,11.95
Twitter,2017-05-24,4070,436,10.71
Twitter,2017-05-25,3730,384,10.29
Twitter,2017-05-26,4441,464,10.45
Twitter,2017-05-27,5185,582,11.22
Twitter,2017-05-28,4442,556,12.52
Twitter,2017-05-29,4684,582,12.43
Twitter,2017-05-30,4537,418,9.21
Twitter,2017-05-31,4548,384,8.44
Twitter,2017-06-01,4178,362,8.66
Twitter,2017-06-02,4374,392,8.96
Twitter,2017-06-03,4044,325,8.04
Twitter,2017-06-04,4274,409,9.57
Twitter,2017-06-05,4443,358,8.06
Twitter,2017-06-06,4194,396,9.44
Twitter,2017-06-07,4522,439,9.71
Twitter,2017-06-08,4114,357,8.68
Twitter,2017-06-09,4389,370,8.43
Twitter,2017-06-10,4173,380,9.11
Twitter,2017-06-11,4202,320,7.62
Twitter,2017-06-12,4860,481,9.9
Twitter,2017-06-13,4412,419,9.5
Twitter,2017-06-14,3881,284,7.32
Twitter,2017-06-15,4696,408,8.69
Twitter,2017-06-16,4093,337,8.23
Twitter,2017-06-17,4563,453,9.93
Twitter,2017-06-18,4331,353,8.15
Twitter,2017-06-19,4583,471,10.28
Twitter,2017-06-20,4895,467,9.54
Twitter,2017-06-21,3750,298,7.95
Twitter,2017-06-22,4321,325,7.52
Twitter,2017-06-23,4668,471,10.09
Twitter,2017-06-24,4505,379,8.41
Twitter,2017-06-25,4525,457,10.1
Twitter,2017-06-26,4461,334,7.49
Twitter,2017-06-27,4242,424,10.0
Twitter,2017-06-28,4312,433,10.04
Twitter,2017-06-29,4508,435,9.65
Twitter,2017-06-30,4957,447,9.02
Twitter,2017-07-01,4332,345,7.96
Twitter,2017-07-02,4202,370,8.81
Twitter,2017-07-03,4115,410,9.96
Twitter,2017-07-04,4306,412,9.57
Twitter,2017-07-05,4358,482,11.06
Twitter,2017-07-06,4378,456,10.42
Twitter,2017-07-07,4671,458,9.81
Twitter,2017-07-08,4364,384,8.8
Twitter,2017-07-09,3944,346,8.77
Twitter,2017-07-10,4010,362,9.03
Twitter,2017-07-11,4103,377,9.19
Twitter,2017-07-12,4465,417,9.34
Twitter,2017-07-13,4504,309,6.86
Twitter,2017-07-14,4603,383,8.32
Twitter,2017-07-15,4087,318,7.78
Twitter,2017-07-16,4392,355,8.08
Twitter,2017-07-17,4611,442,9.59
Twitter,2017-07-18,4452,409,9.19
Twitter,2017-07-19,4515,376,8.33
Twitter,2017-07-20,4211,389,9.24
Twitter,2017-07-21,4590,373,8.13
Twitter,2017-07-22,4259,361,8.48
Twitter,2017-07-23,4959,435,8.77
Twitter,2017-07-24,4338,441,10.17
Twitter,2017-07-25,4258,418,9.82
Twitter,2017-07-26,3845,270,7.02
Twitter,2017-07-27,4632,400,8.64
Twitter,2017-07-28,4476,408,9.12
Twitter,2017-07-29,5300,424,8.0
Twitter,2017-07-30,4618,400,8.66
Twitter,2017-07-31,4848,614,12.67
Twitter,2017-08-01,4257,381,8.95
Twitter,2017-08-02,4088,351,8.59
Twitter,2017-08-03,5248,470,8.96
Twitter,2017-08-04,4230,261,6.17
Twitter,2017-08-05,3903,357,9.15
Twitter,2017-08-06,4355,460,10.56
Twitter,2017-08-07,4956,426,8.6
Twitter,2017-08-08,4401,412,9.36
Twitter,2017-08-09,4325,314,7.26
Twitter,2017-08-10,4444,452,10.17
Twitter,2017-08-11,4361,336,7.7
Twitter,2017-08-12,4490,450,10.02
Twitter,2017-08-13,3926,372,9.48
Twitter,2017-08-14,4458,409,9.17
Twitter,2017-08-15,4631,431,9.31
Twitter,2017-08-16,4539,384,8.46
Twitter,2017-08-17,4678,405,8.66
Twitter,2017-08-18,4512,376,8.33
Twitter,2017-08-19,5085,438,8.61
Twitter,2017-08-20,3735,435,11.65
Twitter,2017-08-21,4478,393,8.78
Twitter,2017-08-22,4259,449,10.54
Twitter,2017-08-23,4216,419,9.94
Twitter,2017-08-24,4793,468,9.76
Twitter,2017-08-25,4407,424,9.62
Twitter,2017-08-26,4194,368,8.77
Twitter,2017-08-27,4278,466,10.89
Twitter,2017-08-28,4073,344,8.45
Twitter,2017-08-29,4378,399,9.11
Twitter,2017-08-30,3733,293,7.85
Twitter,2017-08-31,4263,386,9.05
Twitter,2017-09-01,4894,490,10.01
Twitter,2017-09-02,4735,479,10.12
Twitter,2017-09-03,4151,367,8.84
Twitter,2017-09-04,4771,347,7.27
Twitter,2017-09-05,4505,431,9.57
Twitter,2017-09-06,5132,387,7.54
Twitter,2017-09-07,4246,420,9.89
Twitter,2017-09-08,3952,357,9.03
Twitter,2017-09-09,4300,371,8.63
Twitter,2017-09-10,4826,326,6.76
Twitter,2017-09-11,4002,316,7.9
Twitter,2017-09-12,4279,373,8.72
Twitter,2017-09-13,3862,347,8.98
Twitter,2017-09-14,4158,364,8.75
Twitter,2017-09-15,4133,342,8.27
Twitter,2017-09-16,4619,438,9.48
Twitter,2017-09-17,3972,409,10.3
Twitter,2017-09-18,4584,373,8.14
Twitter,2017-09-19,4836,451,9.33
Twitter,2017-09-20,4764,434,9.11
Twitter,2017-09-21,4325,368,8.51
Twitter,2017-09-22,4365,362,8.29
Twitter,2017-09-23,4668,465,9.96
Twitter,2017-09-24,4120,359,8.71
Twitter,2017-09-25,4863,479,9.85
Twitter,2017-09-26,4135,381,9.21
Twitter,2017-09-27,4853,416,8.57
Twitter,2017-09-28,4133,332,8.03
Twitter,2017-09-29,4567,422,9.24
Twitter,2017-09-30,4490,352,7.84
Twitter,2017-10-01,4411,404,9.16
Twitter,2017-10-02,4464,381,8.53
Twitter,2017-10-03,4066,355,8.73
Twitter,2017-10-04,4175,317,7.59
Twitter,2017-10-05,4314,385,8.92
Twitter,2017-10-06,3600,342,9.5
Twitter,2017-10-07,4566,362,7.93
Twitter,2017-10-08,4621,453,9.8
Twitter,2017-10-09,3983,350,8.79
Twitter,2017-10-10,4819,423,8.78
Twitter,2017-10-11,4157,387,9.31
Twitter,2017-10-12,3902,393,10.07
Twitter,2017-10-13,4326,394,9.11
Twitter,2017-10-14,3497,337,9.64
Twitter,2017-10-15,3927,389,9.91
Twitter,2017-10-16,4141,293,7.08
Twitter,2017-10-17,3883,311,8.01
Twitter,2017-10-18,4224,406,9.61
Twitter,2017-10-19,4403,429,9.74
Twitter,2017-10-20,4450,424,9.53
Twitter,2017-10-21,4112,392,9.53
Twitter,2017-10-22,4694,359,7.65
Twitter,2017-10-23,3848,371,9.64
Twitter,2017-10-24,4497,509,11.32
Twitter,2017-10-25,4369,398,9.11
Twitter,2017-10-26,4354,451,10.36
Twitter,2017-10-27,4322,392,9.07
Twitter,2017-10-28,4796,436,9.09
Twitter,2017-10-29,3985,346,8.68
Twitter,2017-10-30,4824,417,8.64
Twitter,2017-10-31,4164,377,9.05
Twitter,2017-11-01,4711,351,7.45
Twitter,2017-11-02,4466,398,8.91
Twitter,2017-11-03,4676,370,7.91
Twitter,2017-11-04,4545,364,8.01
Twitter,2017-11-05,4483,383,8.54
Twitter,2017-11-06,4637,403,8.69
Twitter,2017-11-07,4622,422,9.13
Twitter,2017-11-08,4330,336,7.76
Twitter,2017-11-09,4605,393,8.53
Twitter,2017-11-10,4216,403,9.56
Twitter,2017-11-11,4293,367,8.55
Twitter,2017-11-12,4555,389,8.54
Twitter,2017-11-13,4813,434,9.02
Twitter,2017-11-14,4528,391,8.64
Twitter,2017-11-15,4177,395,9.46
Twitter,2017-11-16,4513,383,8.49
Twitter,2017-11-17,4537,336,7.41
Twitter,2017-11-18,3983,328,8.23
Twitter,2017-11-19,4254,360,8.46
Twitter,2017-11-20,3993,327,8.19
Twitter,2017-11-21,4729,461,9.75
Twitter,2017-11-22,4238,369,8.71
Twitter,2017-11-23,4111,379,9.22
Twitter,2017-11-24,4191,319,7.61
Twitter,2017-11-25,4699,405,8.62
Twitter,2017-11-26,4397,357,8.12
Twitter,2017-11-27,4948,476,9.62
Twitter,2017-11-28,4615,452,9.79
Twitter,2017-11-29,4239,281,6.63
Twitter,2017-11-30,4061,337,8.3
Twitter,2017-12-01,4634,368,7.94
Twitter,2017-12-02,4177,431,10.32
Twitter,2017-12-03,4468,323,7.23
Twitter,2017-12-04,4350,335,7.7
Twitter,2017-12-05,4216,355,8.42
Twitter,2017-12-06,4402,375,8.52
Twitter,2017-12-07,4240,403,9.5
Twitter,2017-12-08,4286,380,8.87
Twitter,2017-12-09,4665,448,9.6
Twitter,2017-12-10,4438,361,8.13
Twitter,2017-12-11,4422,375,8.48
Twitter,2017-12-12,4439,367,8.27
Twitter,2017-12-13,4225,395,9.35
Twitter,2017-12-14,4285,420,9.8
Twitter,2017-12-15,4479,405,9.04
Twitter,2017-12-16,4232,414,9.78
Twitter,2017-12-17,4137,384,9.28
Twitter,2017-12-18,4698,397,8.45
Twitter,2017-12-19,4478,397,8.87
Twitter,2017-12-20,4756,432,9.08
Twitter,2017-12-21,4323,350,8.1
Twitter,2017-12-22,4794,393,8.2
Twitter,2017-12-23,4378,403,9.21
Twitter,2017-12-24,4417,398,9.01
Twitter,2017-12-25,4529,374,8.26
Twitter,2017-12-26,4508,345,7.65
Twitter,2017-12-27,4095,391,9.55
Twitter,2017-12-28,4648,453,9.75
Twitter,2017-12-29,4669,441,9.45
Twitter,2017-12-30,2443,514,21.04
Twitter,2017-12-31,2174,533,24.52
Youtube,2017-01-01,4621,516,11.17
Youtube,2017-01-02,3966,412,10.39
Youtube,2017-01-03,5104,700,13.71
Youtube,2017-01-04,4880,591,12.11
Youtube,2017-01-05,4386,566,12.9
Youtube,2017-01-06,4328,587,13.56
Youtube,2017-01-07,4766,598,12.55
Youtube,2017-01-08,4403,521,11.83
Youtube,2017-01-09,4226,524,12.4
Youtube,2017-01-10,4226,507,12.0
Youtube,2017-01-11,4284,499,11.65
Youtube,2017-01-12,4799,636,13.25
Youtube,2017-01-13,4608,551,11.96
Youtube,2017-01-14,4476,613,13.7
Youtube,2017-01-15,4017,448,11.15
Youtube,2017-01-16,4446,515,11.58
Youtube,2017-01-17,4503,559,12.41
Youtube,2017-01-18,4606,582,12.64
Youtube,2017-01-19,4219,536,12.7
Youtube,2017-01-20,4257,503,11.82
Youtube,2017-01-21,4553,572,12.56
Youtube,2017-01-22,4413,607,13.75
Youtube,2017-01-23,3979,420,10.56
Youtube,2017-01-24,5208,636,12.21
Youtube,2017-01-25,4189,488,11.65
Youtube,2017-01-26,4400,634,14.41
Youtube,2017-01-27,4672,562,12.03
Youtube,2017-01-28,4020,518,12.89
Youtube,2017-01-29,4577,546,11.93
Youtube,2017-01-30,4261,470,11.03
Youtube,2017-01-31,3894,421,10.81
Youtube,2017-02-01,4427,546,12.33
Youtube,2017-02-02,4355,506,11.62
Youtube,2017-02-03,4171,444,10.64
Youtube,2017-02-04,4622,543,11.75
Youtube,2017-02-05,4741,494,10.42
Youtube,2017-02-06,4481,537,11.98
Youtube,2017-02-07,4076,444,10.89
Youtube,2017-02-08,4569,515,11.27
Youtube,2017-02-09,4878,562,11.52
Youtube,2017-02-10,4552,526,11.56
Youtube,2017-02-11,4654,495,10.64
Youtube,2017-02-12,4331,452,10.44
Youtube,2017-02-13,3705,517,13.95
Youtube,2017-02-14,4352,516,11.86
Youtube,2017-02-15,4789,515,10.75
Youtube,2017-02-16,4779,638,13.35
Youtube,2017-02-17,4316,561,13.0
Youtube,2017-02-18,4470,523,11.7
Youtube,2017-02-19,4010,460,11.47
Youtube,2017-02-20,4757,533,11.2
Youtube,2017-02-21,4881,640,13.11
Youtube,2017-02-22,4478,553,12.35
Youtube,2017-02-23,4019,597,14.85
Youtube,2017-02-24,4124,468,11.35
Youtube,2017-02-25,4565,577,12.64
Youtube,2017-02-26,4578,503,10.99
Youtube,2017-02-27,4718,527,11.17
Youtube,2017-02-28,4450,562,12.63
Youtube,2017-03-01,4618,614,13.3
Youtube,2017-03-02,4677,649,13.88
Youtube,2017-03-03,4400,478,10.86
Youtube,2017-03-04,3926,552,14.06
Youtube,2017-03-05,3990,453,11.35
Youtube,2017-03-06,4976,529,10.63
Youtube,2017-03-07,4319,526,12.18
Youtube,2017-03-08,4614,612,13.26
Youtube,2017-03-09,4469,505,11.3
Youtube,2017-03-10,4355,451,10.36
Youtube,2017-03-11,4701,542,11.53
Youtube,2017-03-12,4400,651,14.8
Youtube,2017-03-13,4711,526,11.17
Youtube,2017-03-14,4763,565,11.86
Youtube,2017-03-15,4635,565,12.19
Youtube,2017-03-16,4346,502,11.55
Youtube,2017-03-17,4453,535,12.01
Youtube,2017-03-18,4597,545,11.86
Youtube,2017-03-19,4807,541,11.25
Youtube,2017-03-20,4375,506,11.57
Youtube,2017-03-21,4554,576,12.65
Youtube,2017-03-22,4244,527,12.42
Youtube,2017-03-23,4462,482,10.8
Youtube,2017-03-24,4340,535,12.33
Youtube,2017-03-25,3877,478,12.33
Youtube,2017-03-26,4463,538,12.05
Youtube,2017-03-27,4049,485,11.98
Youtube,2017-03-28,4357,588,13.5
Youtube,2017-03-29,5259,677,12.87
Youtube,2017-03-30,4168,474,11.37
Youtube,2017-03-31,4754,618,13.0
Youtube,2017-04-01,4250,479,11.27
Youtube,2017-04-02,4177,488,11.68
Youtube,2017-04-03,4018,448,11.15
Youtube,2017-04-04,4561,575,12.61
Youtube,2017-04-05,4608,508,11.02
Youtube,2017-04-06,5071,646,12.74
Youtube,2017-04-07,4616,606,13.13
Youtube,2017-04-08,3949,514,13.02
Youtube,2017-04-09,4279,512,11.97
Youtube,2017-04-10,4402,574,13.04
Youtube,2017-04-11,4345,540,12.43
Youtube,2017-04-12,4309,444,10.3
Youtube,2017-04-13,4513,567,12.56
Youtube,2017-04-14,4733,628,13.27
Youtube,2017-04-15,3812,495,12.99
Youtube,2017-04-16,4322,555,12.84
Youtube,2017-04-17,4845,594,12.26
Youtube,2017-04-18,4379,512,11.69
Youtube,2017-04-19,4649,559,12.02
Youtube,2017-04-20,4274,617,14.44
Youtube,2017-04-21,4457,610,13.69
Youtube,2017-04-22,4456,562,12.61
Youtube,2017-04-23,4921,477,9.69
Youtube,2017-04-24,4830,612,12.67
Youtube,2017-04-25,4532,535,11.8
Youtube,2017-04-26,4773,614,12.86
Youtube,2017-04-27,4177,623,14.92
Youtube,2017-04-28,4479,544,12.15
Youtube,2017-04-29,4064,468,11.52
Youtube,2017-04-30,4661,626,13.43
Youtube,2017-05-01,4446,659,14.82
Youtube,2017-05-02,5003,595,11.89
Youtube,2017-05-03,4128,399,9.67
Youtube,2017-05-04,4517,549,12.15
Youtube,2017-05-05,4431,538,12.14
Youtube,2017-05-06,3845,454,11.81
Youtube,2017-05-07,4514,551,12.21
Youtube,2017-05-08,4888,559,11.44
Youtube,2017-05-09,4904,515,10.5
Youtube,2017-05-10,5047,576,11.41
Youtube,2017-05-11,4462,569,12.75
Youtube,2017-05-12,4244,462,10.89
Youtube,2017-05-13,4412,543,12.31
Youtube,2017-05-14,4214,545,12.93
Youtube,2017-05-15,4526,468,10.34
Youtube,2017-05-16,4414,498,11.28
Youtube,2017-05-17,4303,586,13.62
Youtube,2017-05-18,4358,514,11.79
Youtube,2017-05-19,4603,508,11.04
Youtube,2017-05-20,4506,584,12.96
Youtube,2017-05-21,4245,494,11.64
Youtube,2017-05-22,4813,699,14.52
Youtube,2017-05-23,4689,504,10.75
Youtube,2017-05-24,4486,599,13.35
Youtube,2017-05-25,4611,603,13.08
Youtube,2017-05-26,4207,501,11.91
Youtube,2017-05-27,4625,552,11.94
Youtube,2017-05-28,4451,538,12.09
Youtube,2017-05-29,4592,575,12.52
Youtube,2017-05-30,4094,334,8.16
Youtube,2017-05-31,4192,361,8.61
Youtube,2017-06-01,4265,347,8.14
Youtube,2017-06-02,4803,467,9.72
Youtube,2017-06-03,4828,497,10.29
Youtube,2017-06-04,4514,420,9.3
Youtube,2017-06-05,4613,442,9.58
Youtube,2017-06-06,3555,312,8.78
Youtube,2017-06-07,4154,347,8.35
Youtube,2017-06-08,3924,348,8.87
Youtube,2017-06-09,4359,400,9.18
Youtube,2017-06-10,4114,400,9.72
Youtube,2017-06-11,4547,379,8.34
Youtube,2017-06-12,3660,361,9.86
Youtube,2017-06-13,3992,321,8.04
Youtube,2017-06-14,4005,375,9.36
Youtube,2017-06-15,4403,376,8.54
Youtube,2017-06-16,4681,484,10.34
Youtube,2017-06-17,4210,350,8.31
Youtube,2017-06-18,4062,417,10.27
Youtube,2017-06-19,4321,361,8.35
Youtube,2017-06-20,5105,442,8.66
Youtube,2017-06-21,4318,365,8.45
Youtube,2017-06-22,4097,415,10.13
Youtube,2017-06-23,4349,378,8.69
Youtube,2017-06-24,4154,352,8.47
Youtube,2017-06-25,4626,440,9.51
Youtube,2017-06-26,4905,509,10.38
Youtube,2017-06-27,4265,395,9.26
Youtube,2017-06-28,3861,407,10.54
Youtube,2017-06-29,4851,457,9.42
Youtube,2017-06-30,5048,474,9.39
Youtube,2017-07-01,4299,373,8.68
Youtube,2017-07-02,5232,468,8.94
Youtube,2017-07-03,4582,439,9.58
Youtube,2017-07-04,4882,420,8.6
Youtube,2017-07-05,4894,486,9.93
Youtube,2017-07-06,4468,380,8.5
Youtube,2017-07-07,4159,378,9.09
Youtube,2017-07-08,4422,413,9.34
Youtube,2017-07-09,4066,361,8.88
Youtube,2017-07-10,4802,396,8.25
Youtube,2017-07-11,4723,408,8.64
Youtube,2017-07-12,5162,465,9.01
Youtube,2017-07-13,4256,311,7.31
Youtube,2017-07-14,4469,392,8.77
Youtube,2017-07-15,4364,346,7.93
Youtube,2017-07-16,4738,461,9.73
Youtube,2017-07-17,4660,390,8.37
Youtube,2017-07-18,4207,373,8.87
Youtube,2017-07-19,5004,420,8.39
Youtube,2017-07-20,4651,446,9.59
Youtube,2017-07-21,4775,486,10.18
Youtube,2017-07-22,4430,410,9.26
Youtube,2017-07-23,4557,454,9.96
Youtube,2017-07-24,4631,419,9.05
Youtube,2017-07-25,4758,427,8.97
Youtube,2017-07-26,3988,349,8.75
Youtube,2017-07-27,4183,373,8.92
Youtube,2017-07-28,4403,396,8.99
Youtube,2017-07-29,4718,386,8.18
Youtube,2017-07-30,4393,496,11.29
Youtube,2017-07-31,4850,478,9.86
Youtube,2017-08-01,3840,353,9.19
Youtube,2017-08-02,4064,373,9.18
Youtube,2017-08-03,4307,363,8.43
Youtube,2017-08-04,4339,320,7.37
Youtube,2017-08-05,4528,443,9.78
Youtube,2017-08-06,4421,392,8.87
Youtube,2017-08-07,4370,410,9.38
Youtube,2017-08-08,4689,418,8.91
Youtube,2017-08-09,4329,342,7.9
Youtube,2017-08-10,4409,395,8.96
Youtube,2017-08-11,4504,437,9.7
Youtube,2017-08-12,4477,491,10.97
Youtube,2017-08-13,4214,374,8.88
Youtube,2017-08-14,4258,354,8.31
Youtube,2017-08-15,4362,364,8.34
Youtube,2017-08-16,4244,356,8.39
Youtube,2017-08-17,4637,476,10.27
Youtube,2017-08-18,4448,487,10.95
Youtube,2017-08-19,4993,482,9.65
Youtube,2017-08-20,4678,412,8.81
Youtube,2017-08-21,4418,387,8.76
Youtube,2017-08-22,4006,336,8.39
Youtube,2017-08-23,4461,401,8.99
Youtube,2017-08-24,4077,412,10.11
Youtube,2017-08-25,4309,349,8.1
Youtube,2017-08-26,4780,452,9.46
Youtube,2017-08-27,4909,401,8.17
Youtube,2017-08-28,4628,464,10.03
Youtube,2017-08-29,4573,396,8.66
Youtube,2017-08-30,4028,330,8.19
Youtube,2017-08-31,4720,368,7.8
Youtube,2017-09-01,4723,411,8.7
Youtube,2017-09-02,4569,438,9.59
Youtube,2017-09-03,4169,386,9.26
Youtube,2017-09-04,4144,307,7.41
Youtube,2017-09-05,3605,353,9.79
Youtube,2017-09-06,4297,453,10.54
Youtube,2017-09-07,4319,338,7.83
Youtube,2017-09-08,4366,369,8.45
Youtube,2017-09-09,4153,376,9.05
Youtube,2017-09-10,4945,430,8.7
Youtube,2017-09-11,4550,400,8.79
Youtube,2017-09-12,4616,491,10.64
Youtube,2017-09-13,4343,368,8.47
Youtube,2017-09-14,4272,416,9.74
Youtube,2017-09-15,4112,431,10.48
Youtube,2017-09-16,4563,418,9.16
Youtube,2017-09-17,4834,434,8.98
Youtube,2017-09-18,4385,367,8.37
Youtube,2017-09-19,3742,306,8.18
Youtube,2017-09-20,3871,420,10.85
Youtube,2017-09-21,4061,445,10.96
Youtube,2017-09-22,4180,341,8.16
Youtube,2017-09-23,4484,410,9.14
Youtube,2017-09-24,4460,371,8.32
Youtube,2017-09-25,4696,419,8.92
Youtube,2017-09-26,4616,487,10.55
Youtube,2017-09-27,4218,388,9.2
Youtube,2017-09-28,4638,429,9.25
Youtube,2017-09-29,4224,364,8.62
Youtube,2017-09-30,4058,449,11.06
Youtube,2017-10-01,4783,462,9.66
Youtube,2017-10-02,4350,440,10.11
Youtube,2017-10-03,4620,429,9.29
Youtube,2017-10-04,4719,455,9.64
Youtube,2017-10-05,4491,489,10.89
Youtube,2017-10-06,4005,385,9.61
Youtube,2017-10-07,4197,357,8.51
Youtube,2017-10-08,5240,443,8.45
Youtube,2017-10-09,4564,450,9.86
Youtube,2017-10-10,4889,464,9.49
Youtube,2017-10-11,4851,403,8.31
Youtube,2017-10-12,4443,456,10.26
Youtube,2017-10-13,4236,373,8.81
Youtube,2017-10-14,4837,477,9.86
Youtube,2017-10-15,4109,377,9.17
Youtube,2017-10-16,4536,478,10.54
Youtube,2017-10-17,4649,451,9.7
Youtube,2017-10-18,4793,390,8.14
Youtube,2017-10-19,4224,439,10.39
Youtube,2017-10-20,4120,386,9.37
Youtube,2017-10-21,4771,440,9.22
Youtube,2017-10-22,4509,435,9.65
Youtube,2017-10-23,4494,445,9.9
Youtube,2017-10-24,4208,361,8.58
Youtube,2017-10-25,4973,527,10.6
Youtube,2017-10-26,4271,368,8.62
Youtube,2017-10-27,4225,438,10.37
Youtube,2017-10-28,4792,467,9.75
Youtube,2017-10-29,4676,426,9.11
Youtube,2017-10-30,4575,474,10.36
Youtube,2017-10-31,4312,428,9.93
Youtube,2017-11-01,4585,389,8.48
Youtube,2017-11-02,4442,348,7.83
Youtube,2017-11-03,4671,466,9.98
Youtube,2017-11-04,4636,398,8.58
Youtube,2017-11-05,4299,371,8.63
Youtube,2017-11-06,3975,490,12.33
Youtube,2017-11-07,4289,417,9.72
Youtube,2017-11-08,4738,405,8.55
Youtube,2017-11-09,4848,447,9.22
Youtube,2017-11-10,4568,370,8.1
Youtube,2017-11-11,4360,411,9.43
Youtube,2017-11-12,3869,306,7.91
Youtube,2017-11-13,4906,481,9.8
Youtube,2017-11-14,4797,409,8.53
Youtube,2017-11-15,3969,336,8.47
Youtube,2017-11-16,4390,376,8.56
Youtube,2017-11-17,4847,472,9.74
Youtube,2017-11-18,3973,355,8.94
Youtube,2017-11-19,4512,509,11.28
Youtube,2017-11-20,4803,366,7.62
Youtube,2017-11-21,4680,412,8.8
Youtube,2017-11-22,4308,410,9.52
Youtube,2017-11-23,4118,341,8.28
Youtube,2017-11-24,4264,473,11.09
Youtube,2017-11-25,4943,450,9.1
Youtube,2017-11-26,4667,421,9.02
Youtube,2017-11-27,4257,418,9.82
Youtube,2017-11-28,4252,380,8.94
Youtube,2017-11-29,4291,400,9.32
Youtube,2017-11-30,4228,366,8.66
Youtube,2017-12-01,4195,451,10.75
Youtube,2017-12-02,4782,497,10.39
Youtube,2017-12-03,4382,375,8.56
Youtube,2017-12-04,4595,485,10.55
Youtube,2017-12-05,4483,376,8.39
Youtube,2017-12-06,4373,442,10.11
Youtube,2017-12-07,4352,359,8.25
Youtube,2017-12-08,4207,364,8.65
Youtube,2017-12-09,4039,392,9.71
Youtube,2017-12-10,4625,480,10.38
Youtube,2017-12-11,3641,347,9.53
Youtube,2017-12-12,4381,433,9.88
Youtube,2017-12-13,4200,374,8.9
Youtube,2017-12-14,4543,366,8.06
Youtube,2017-12-15,4772,458,9.6
Youtube,2017-12-16,4508,453,10.05
Youtube,2017-12-17,4447,413,9.29
Youtube,2017-12-18,4496,410,9.12
Youtube,2017-12-19,4086,411,10.06
Youtube,2017-12-20,4354,412,9.46
Youtube,2017-12-21,5233,477,9.12
Youtube,2017-12-22,4151,393,9.47
Youtube,2017-12-23,4597,368,8.01
Youtube,2017-12-24,4675,413,8.83
Youtube,2017-12-25,4992,491,9.84
Youtube,2017-12-26,4629,426,9.2
Youtube,2017-12-27,4058,406,10.0
Youtube,2017-12-28,4290,411,9.58
Youtube,2017-12-29,4539,477,10.51
Youtube,2017-12-30,2045,459,22.44
Youtube,2017-12-31,2457,542,22.06
